v 20130925 2
C 42500 42900 1 0 0 dsPIC33EVxxGMx02.sym
{
T 45100 49000 5 10 1 1 0 0 1
refdes=U1
T 42800 49150 5 10 0 0 0 0 1
device=dsPIC33EVxxGMx02
T 42800 49550 5 10 0 0 0 0 1
footprint=DIP28
}
C 44700 50600 1 0 0 capacitor-1.sym
{
T 44900 51300 5 10 0 0 0 0 1
device=CAPACITOR
T 44900 51100 5 10 0 1 0 0 1
refdes=C?
T 44900 51500 5 10 0 0 0 0 1
symversion=0.1
T 44700 50600 5 10 1 1 0 0 1
value=0.1
}
C 41500 44800 1 90 0 capacitor-1.sym
{
T 40800 45000 5 10 0 0 90 0 1
device=CAPACITOR
T 41000 45000 5 10 0 1 90 0 1
refdes=C?
T 40600 45000 5 10 0 0 90 0 1
symversion=0.1
T 41500 44800 5 10 1 1 0 0 1
value=0.1
}
C 46000 49300 1 0 0 capacitor-1.sym
{
T 46200 50000 5 10 0 0 0 0 1
device=CAPACITOR
T 46200 49800 5 10 0 1 0 0 1
refdes=C?
T 46200 50200 5 10 0 0 0 0 1
symversion=0.1
T 46100 49300 5 10 1 1 0 0 1
value=0.1
}
C 45700 39500 1 90 0 capacitor-1.sym
{
T 45000 39700 5 10 0 0 90 0 1
device=CAPACITOR
T 45200 39700 5 10 0 1 90 0 1
refdes=C?
T 44800 39700 5 10 0 0 90 0 1
symversion=0.1
T 45800 39800 5 10 1 1 180 0 1
value=0.1
}
C 45600 45100 1 0 0 capacitor-2.sym
{
T 45800 45800 5 10 0 0 0 0 1
device=POLARIZED_CAPACITOR
T 45700 45500 5 10 1 1 0 0 1
refdes=C1
T 45800 46000 5 10 0 0 0 0 1
symversion=0.1
T 46200 45100 5 10 1 1 0 0 1
value=10u
}
C 40300 51600 1 0 0 resistor-1.sym
{
T 40600 52000 5 10 0 0 0 0 1
device=RESISTOR
T 40500 51900 5 10 0 1 0 0 1
refdes=R?
T 40900 51900 5 10 1 1 0 0 1
value=2K37
}
C 44200 49900 1 0 0 resistor-1.sym
{
T 44500 50300 5 10 0 0 0 0 1
device=RESISTOR
T 44400 50200 5 10 0 1 0 0 1
refdes=R?
T 45000 49800 5 10 1 1 0 0 1
value=47K
}
C 56200 43500 1 90 0 resistor-1.sym
{
T 55800 43800 5 10 0 0 90 0 1
device=RESISTOR
T 55800 43800 5 10 0 1 180 0 1
refdes=R?
T 56300 43700 5 10 1 1 0 0 1
value=82
}
C 53300 40600 1 180 0 resistor-1.sym
{
T 53000 40200 5 10 0 0 180 0 1
device=RESISTOR
T 53100 40300 5 10 0 1 180 0 1
refdes=R?
T 52900 40200 5 10 1 1 0 0 1
value=1K1
}
C 57400 42600 1 180 0 resistor-1.sym
{
T 57100 42200 5 10 0 0 180 0 1
device=RESISTOR
T 57200 42300 5 10 0 1 180 0 1
refdes=R?
T 56600 42200 5 10 1 1 0 0 1
value=412
}
C 53500 50100 1 90 0 resistor-1.sym
{
T 53100 50400 5 10 0 0 90 0 1
device=RESISTOR
T 53200 50300 5 10 0 1 90 0 1
refdes=R?
T 53500 50100 5 10 1 1 0 0 1
value=412
}
C 58400 41600 1 180 0 resistor-1.sym
{
T 58100 41200 5 10 0 0 180 0 1
device=RESISTOR
T 58200 41300 5 10 0 1 180 0 1
refdes=R?
T 57600 41200 5 10 1 1 0 0 1
value=412
}
C 54100 43600 1 90 0 resistor-1.sym
{
T 53700 43900 5 10 0 0 90 0 1
device=RESISTOR
T 53900 43900 5 10 0 1 180 0 1
refdes=R?
T 54100 43600 5 10 1 1 0 0 1
value=3K32
}
C 56400 41600 1 180 0 resistor-1.sym
{
T 56100 41200 5 10 0 0 180 0 1
device=RESISTOR
T 56200 41300 5 10 0 1 180 0 1
refdes=R?
T 55900 41200 5 10 1 1 0 0 1
value=412
}
C 53300 41200 1 180 0 resistor-1.sym
{
T 53000 40800 5 10 0 0 180 0 1
device=RESISTOR
T 53100 40900 5 10 0 1 180 0 1
refdes=R?
T 52900 40800 5 10 1 1 0 0 1
value=1K1
}
C 57400 40600 1 180 0 resistor-1.sym
{
T 57100 40200 5 10 0 0 180 0 1
device=RESISTOR
T 57200 40300 5 10 0 1 180 0 1
refdes=R?
T 57000 40200 5 10 1 1 0 0 1
value=412
}
C 54600 43600 1 90 0 resistor-1.sym
{
T 54200 43900 5 10 0 0 90 0 1
device=RESISTOR
T 54300 44000 5 10 0 1 180 0 1
refdes=R?
T 54600 43600 5 10 1 1 0 0 1
value=3K32
}
C 53300 41800 1 180 0 resistor-1.sym
{
T 53000 41400 5 10 0 0 180 0 1
device=RESISTOR
T 53100 41500 5 10 0 1 180 0 1
refdes=R?
T 52900 41400 5 10 1 1 0 0 1
value=1K1
}
C 53600 43600 1 90 0 resistor-1.sym
{
T 53200 43900 5 10 0 0 90 0 1
device=RESISTOR
T 53400 44100 5 10 0 1 180 0 1
refdes=R?
T 53600 43600 5 10 1 1 0 0 1
value=3K32
}
C 54500 50700 1 270 0 resistor-variable-1.sym
{
T 55400 49900 5 10 0 0 270 0 1
device=VARIABLE_RESISTOR
T 54900 50100 5 10 0 1 270 0 1
refdes=R?
T 54800 50400 5 10 1 1 0 0 1
value=1K
}
C 45300 51700 1 0 0 switch-pushbutton-no-1.sym
{
T 45700 52000 5 10 1 1 0 0 1
refdes=S5
T 45700 52300 5 10 0 0 0 0 1
device=SWITCH_PUSHBUTTON_NO
}
C 56500 41500 1 0 0 switch-pushbutton-no-1.sym
{
T 56900 41800 5 10 1 1 0 0 1
refdes=S1
T 56900 42100 5 10 0 0 0 0 1
device=SWITCH_PUSHBUTTON_NO
}
C 55500 42500 1 0 0 switch-pushbutton-no-1.sym
{
T 55900 42800 5 10 1 1 0 0 1
refdes=S2
T 55900 43100 5 10 0 0 0 0 1
device=SWITCH_PUSHBUTTON_NO
}
C 55500 40500 1 0 0 switch-pushbutton-no-1.sym
{
T 55900 40800 5 10 1 1 0 0 1
refdes=S3
T 55900 41100 5 10 0 0 0 0 1
device=SWITCH_PUSHBUTTON_NO
}
C 54500 41500 1 0 0 switch-pushbutton-no-1.sym
{
T 54900 41800 5 10 1 1 0 0 1
refdes=S4
T 54900 42100 5 10 0 0 0 0 1
device=SWITCH_PUSHBUTTON_NO
}
C 40300 51500 1 0 1 led-1.sym
{
T 39500 52100 5 10 0 0 0 6 1
device=LED
T 39500 51900 5 10 1 1 0 6 1
refdes=LED4
T 39500 52300 5 10 0 0 0 6 1
symversion=0.1
}
C 51500 41500 1 0 0 led-1.sym
{
T 52300 42100 5 10 0 0 0 0 1
device=LED
T 51300 41500 5 10 1 1 0 0 1
refdes=LED3
T 52300 42300 5 10 0 0 0 0 1
symversion=0.1
}
C 51500 40900 1 0 0 led-1.sym
{
T 52300 41500 5 10 0 0 0 0 1
device=LED
T 51300 40900 5 10 1 1 0 0 1
refdes=LED2
T 52300 41700 5 10 0 0 0 0 1
symversion=0.1
}
C 51500 40300 1 0 0 led-1.sym
{
T 52300 40900 5 10 0 0 0 0 1
device=LED
T 51300 40300 5 10 1 1 0 0 1
refdes=LED1
T 52300 41100 5 10 0 0 0 0 1
symversion=0.1
}
C 41800 52300 1 270 1 connector6-2.sym
{
T 44700 52800 5 10 1 1 180 8 1
refdes=CONN6
T 44650 52600 5 10 0 0 90 2 1
device=CONNECTOR_6
T 44850 52600 5 10 0 0 90 2 1
footprint=SIP6N
}
C 49800 41400 1 0 0 header14-1.sym
{
T 49850 40350 5 10 0 1 0 0 1
device=HEADER16
T 50400 44700 5 10 1 1 0 0 1
refdes=JP4
}
C 56000 44400 1 0 0 jumper-1.sym
{
T 56300 44900 5 8 0 0 0 0 1
device=JUMPER
T 56300 44900 5 10 1 1 0 0 1
refdes=JP2
}
C 40500 48700 1 0 0 header6-1.sym
{
T 40500 50300 5 10 0 1 0 0 1
device=HEADER8
T 41100 50400 5 10 1 1 0 0 1
refdes=JP1
}
C 56800 44600 1 0 0 connector-LCD.sym
{
T 57500 51500 5 10 1 1 0 6 1
refdes=LCD1
T 57100 51450 5 10 0 0 0 0 1
device=CONNECTOR_16
T 57100 51650 5 10 0 0 0 0 1
footprint=SIP16N
}
C 47100 40400 1 270 0 USBgeneric.sym
{
T 48700 40400 5 10 0 1 270 0 1
device=USB
T 46700 39600 5 10 1 1 0 0 1
refdes=J1
}
C 43600 39500 1 90 0 pwrjack-1.sym
{
T 43100 39600 5 10 0 0 90 0 1
device=PWRJACK
T 43900 39800 5 10 1 1 180 0 1
refdes=J2
}
C 50700 45900 1 0 0 header12-1.sym
{
T 50750 44850 5 10 0 1 0 0 1
device=HEADER12
T 51300 49200 5 10 1 1 0 0 1
refdes=JP3
}
N 48300 46700 49400 46700 4
N 49400 46700 49400 46900 4
N 48100 47100 49400 47100 4
N 49400 47100 49400 47300 4
N 47900 47500 49400 47500 4
N 49400 47500 49400 47700 4
N 47700 47900 49400 47900 4
N 49400 47900 49400 48100 4
N 47500 48300 49400 48300 4
N 49400 48300 49400 48500 4
N 47300 48700 49400 48700 4
N 49400 48700 49400 48900 4
N 46900 49100 49400 49100 4
N 49400 49100 49400 49300 4
N 47100 49500 49400 49500 4
N 49400 49500 49400 49700 4
N 49400 49900 49400 50100 4
N 47800 50300 49400 50300 4
N 49400 50300 49400 50500 4
N 49400 46900 50700 46900 4
N 49400 47300 50700 47300 4
N 49400 47700 50700 47700 4
N 49400 48100 50700 48100 4
N 49400 48500 50700 48500 4
N 49400 48900 50700 48900 4
N 45600 47700 47300 47700 4
N 47300 47700 47300 48700 4
N 45600 47300 47500 47300 4
N 47500 47300 47500 48300 4
N 45600 46900 47700 46900 4
N 47700 46900 47700 47900 4
N 45600 46500 47900 46500 4
N 47900 46500 47900 47500 4
N 45600 46100 48100 46100 4
N 48100 46100 48100 47100 4
N 45600 45700 48300 45700 4
N 48300 45700 48300 46700 4
N 46900 48100 46900 49500 4
N 46000 49500 46000 48500 4
N 46500 44900 46500 48100 4
N 52100 47700 56000 47700 4
N 56000 47700 56000 47000 4
N 56000 47000 56800 47000 4
N 52100 48100 55800 48100 4
N 55800 46600 55800 48100 4
N 55800 46600 56800 46600 4
N 52100 48500 55600 48500 4
N 55600 46200 55600 48500 4
N 55600 46200 56800 46200 4
N 52100 48900 55400 48900 4
N 55400 45800 55400 48900 4
N 55400 45800 56800 45800 4
N 52100 47300 56200 47300 4
N 56200 47300 56200 49000 4
N 56200 49000 56800 49000 4
N 52100 46900 55200 46900 4
N 55200 46900 55200 49800 4
N 55200 49800 56800 49800 4
N 55100 50200 56800 50200 4
N 51100 51000 57700 51000 4
N 51100 49300 51100 51000 4
N 51100 49300 49400 49300 4
N 54600 50700 54600 51000 4
N 56800 49400 53400 49400 4
N 53400 49400 53400 50100 4
N 49400 49700 50900 49700 4
N 50900 49700 50900 51200 4
N 50900 51200 56200 51200 4
N 56200 50600 56200 51200 4
N 56200 50600 57900 50600 4
N 56800 45000 58400 45000 4
N 57700 45000 57700 51000 4
N 56100 45400 56800 45400 4
N 57900 50600 57900 43500 4
N 55400 43500 58500 43500 4
N 45600 44900 46500 44900 4
N 44200 52300 44200 49400 4
N 42500 49400 44200 49400 4
N 42500 49400 42500 48500 4
N 43000 52300 43000 49700 4
N 43000 49700 41900 49700 4
N 42600 52300 42600 50600 4
N 42600 50600 39700 50600 4
N 39700 50600 39700 49700 4
N 39700 49700 40500 49700 4
N 47100 48500 47100 51400 4
N 43800 52300 43800 51400 4
N 39100 51400 47100 51400 4
N 47600 49100 47600 50500 4
N 43400 50500 47600 50500 4
N 43400 50500 43400 52300 4
N 44700 50800 44700 51400 4
N 45600 50800 45600 50500 4
N 45100 50000 47100 50000 4
N 46300 51700 46300 50500 4
N 45300 51700 44200 51700 4
N 41200 51700 43800 51700 4
N 41900 49300 41900 46100 4
N 40500 46100 42500 46100 4
N 40300 43200 40300 49300 4
N 40300 46500 42500 46500 4
N 42500 47299 39900 47299 4
N 39900 47299 39900 50100 4
N 39900 50100 40500 50100 4
N 40100 46900 42500 46900 4
N 42100 46900 42100 50100 4
N 42100 50100 41900 50100 4
N 43400 50800 39300 50800 4
N 39300 47500 39300 51700 4
N 39300 47500 38900 47500 4
N 38900 47500 38900 47100 4
N 38900 47900 39100 47900 4
N 39100 45500 39100 51400 4
N 38900 48700 41600 48700 4
N 41600 48500 41600 48700 4
N 41600 48500 42500 48500 4
N 42500 48100 39500 48100 4
N 39500 44800 39500 48100 4
N 39500 44800 38900 44800 4
N 42500 47700 39700 47700 4
N 39700 44400 39700 47700 4
N 39700 44400 38900 44400 4
N 40100 46900 40100 43600 4
N 40100 43600 38900 43600 4
N 38900 43200 40300 43200 4
N 40300 49300 40500 49300 4
N 40500 42800 40500 46100 4
N 40500 42800 38900 42800 4
N 38900 44000 39900 44000 4
N 39900 44000 39900 47300 4
N 42500 45700 39300 45700 4
N 39300 45700 39300 47100 4
N 39300 47100 38900 47100 4
N 39100 45500 40700 45500 4
N 40700 45500 40700 43700 4
N 40700 43700 42500 43700 4
N 42500 44500 40900 44500 4
N 40900 42400 40900 44500 4
N 38100 42400 40900 42400 4
N 42500 44100 41100 44100 4
N 41100 44100 41100 42000 4
N 38000 42000 41100 42000 4
N 41300 44800 41300 43700 4
N 51200 42800 51500 42800 4
N 51500 42800 51500 41700 4
N 51500 41100 51400 41100 4
N 51400 41100 51400 42400 4
N 51400 42400 51200 42400 4
N 51500 40500 51300 40500 4
N 51300 40500 51300 42000 4
N 51200 42000 51300 42000 4
C 55100 43600 1 90 0 resistor-1.sym
{
T 54700 43900 5 10 0 0 90 0 1
device=RESISTOR
T 54800 44000 5 10 0 1 180 0 1
refdes=R?
T 55100 43600 5 10 1 1 0 0 1
netname=3K32
}
N 55400 43500 55400 44500 4
N 55400 44500 53500 44500 4
N 55000 43600 55000 43100 4
N 51300 43100 57900 43100 4
N 54500 43600 54500 43200 4
N 51500 43200 55500 43200 4
N 51500 43200 51500 43600 4
N 51500 43600 51200 43600 4
N 51200 44000 51700 44000 4
N 51700 44000 51700 43300 4
N 51700 43300 54000 43300 4
N 54000 42100 54000 43600 4
N 51200 44400 52000 44400 4
N 52000 44400 52000 43400 4
N 52000 43400 53900 43400 4
N 53500 43400 53500 43600 4
N 57900 42000 57900 43100 4
N 56500 42000 57900 42000 4
N 56500 42000 56500 41500 4
N 55500 43200 55500 42500 4
N 54000 42100 55500 42100 4
N 55500 42100 55500 40500 4
N 53900 41500 53900 43400 4
N 53900 41500 54500 41500 4
N 58400 39900 58400 45000 4
N 58400 40500 57400 40500 4
N 53300 41700 53300 39900 4
N 49500 39900 58400 39900 4
N 57400 42500 58400 42500 4
N 56400 41500 56400 41000 4
N 56400 41000 58400 41000 4
N 49800 41400 41500 41400 4
N 41500 41400 41500 44500 4
N 45600 42400 49800 42400 4
N 45600 42400 45600 43300 4
N 45600 43700 45800 43700 4
N 45800 43700 45800 42800 4
N 45800 42800 49800 42800 4
N 42500 43300 41900 43300 4
N 41900 43300 41900 41800 4
N 41900 41800 46000 41800 4
N 46000 41800 46000 43200 4
N 46000 43200 49800 43200 4
N 45600 44100 46000 44100 4
N 46000 43600 46000 44100 4
N 46000 43600 49800 43600 4
N 45600 44500 46200 44500 4
N 46200 44000 46200 44500 4
N 46200 44000 49800 44000 4
N 47200 44400 49800 44400 4
N 47200 41600 47200 44400 4
N 41700 41600 47200 41600 4
N 41700 41600 41700 44100 4
N 49800 41400 49800 42000 4
N 48500 44800 47000 44800 4
N 47000 44800 47000 42000 4
N 47000 42000 42100 42000 4
N 42100 42000 42100 44900 4
N 42100 44900 42500 44900 4
N 42500 45300 42300 45300 4
N 42300 45300 42300 42200 4
N 42300 42200 47700 42200 4
N 47700 42200 47700 45200 4
N 47700 45200 48500 45200 4
N 39300 51700 39400 51700 4
N 51200 43200 51300 43200 4
N 51300 43200 51300 43100 4
N 49500 39900 49500 40900 4
N 49500 40900 43300 40900 4
N 43300 40900 43300 40400 4
N 47600 40400 47600 40900 4
N 47100 39500 47100 40900 4
N 43500 40400 45500 40400 4
N 58500 43500 58500 39700 4
N 58500 39700 49200 39700 4
N 49200 39700 49200 40700 4
N 49200 40700 45500 40700 4
N 45500 40700 45500 40400 4
N 48500 40400 48500 40700 4
N 38100 42400 38100 49500 4
N 38000 49100 38000 42000 4
C 37100 37400 0 0 0 title-C.sym
T 52100 37700 9 10 1 0 0 0 1
dsPIC-EL-GM1/dsPIC-EL-GM.sch
T 52600 37400 9 10 1 0 0 0 1
1
T 53900 37400 9 10 1 0 0 0 1
1
T 56700 37700 9 10 1 0 0 0 1
4
T 56300 37400 9 10 1 0 0 0 1
WB8RCR
T 52400 38200 9 16 1 0 0 0 1
dsPIC-EL-GM
N 38900 49500 38100 49500 4
N 38900 49100 38000 49100 4
N 47800 42400 47800 50300 4
C 38200 46300 1 0 0 ArduinoConn1.sym
{
T 38200 50000 5 10 1 1 0 0 1
refdes=CONN1
T 37800 49950 5 10 0 0 0 0 1
device=CONNECTOR_8
T 37800 50150 5 10 0 0 0 0 1
footprint=SIP8N
}
C 38300 41600 1 0 0 ArduinoConn2.sym
{
T 38200 45300 5 10 1 1 0 0 1
refdes=CONN2
T 38600 45250 5 10 0 0 0 0 1
device=ArduinoConn2
T 38600 45450 5 10 0 0 0 0 1
footprint=SIP8N
}
C 48500 42000 1 0 0 ArduinoConn3.sym
{
T 49200 45700 5 10 1 1 0 6 1
refdes=CONN3
T 48800 45650 5 10 0 0 0 0 1
device=ArduinoConn3
T 48800 45850 5 10 0 0 0 0 1
footprint=SIP8N
}
C 49400 46500 1 0 0 ArduinoConn4.sym
{
T 50100 51000 5 10 1 1 0 6 1
refdes=CONN5
T 49700 50950 5 10 0 0 0 0 1
device=CONNECTOR_10
T 49700 51150 5 10 0 0 0 0 1
footprint=SIP10N
}
C 48400 46300 1 0 0 ArduinoConn4.sym
{
T 49100 50800 5 10 1 1 0 6 1
refdes=CONN4
T 48700 50750 5 10 0 0 0 0 1
device=CONNECTOR_10
T 48700 50950 5 10 0 0 0 0 1
footprint=SIP10N
}
T 56900 41300 9 10 1 0 0 0 1
Up
T 55800 42300 9 10 1 0 0 0 1
Left
T 55800 40300 9 10 1 0 0 0 1
Right
T 54700 41300 9 10 1 0 0 0 1
Down
T 55200 44700 9 10 1 0 0 0 2
Backlight
Enable
T 41900 49400 9 10 1 0 0 0 1
dsPIC33EV
T 41900 50200 9 10 1 0 0 0 1
PIC24EV
T 51200 46300 9 10 1 0 0 0 2
 LCD
Enable
T 49700 43600 9 10 1 0 90 0 1
Buttons
T 49700 42400 9 10 1 0 90 0 1
LEDs
T 48800 39300 9 10 1 0 0 0 2
Micro
 USB
T 43700 40000 9 10 1 0 0 0 1
XH
N 48100 49900 48100 43200 4
N 48100 49900 49400 49900 4
N 45500 39500 47100 39500 4
N 45600 48100 46900 48100 4
N 45600 48500 47100 48500 4
