v 20130925 2
C 42500 42900 1 0 0 EMBEDDEDdsPIC33EVxxGMx02.sym
[
B 42800 42900 2500 6000 3 0 0 0 -1 -1 0 -1 -1 -1 -1 -1
P 42700 48500 42500 48500 1 0 1
{
T 42700 48550 5 8 1 1 0 6 1
pinnumber=1
T 42700 48450 1 8 0 1 0 8 1
pinseq=1
T 42850 48500 3 8 1 1 0 0 1
pinlabel=MCLR
T 42850 48500 1 8 0 1 0 2 1
pintype=io
}
P 42800 48100 42500 48100 1 0 1
{
T 42700 48150 5 8 1 1 0 6 1
pinnumber=2
T 42700 48050 5 8 0 1 0 8 1
pinseq=2
T 42850 48100 9 8 1 1 0 0 1
pinlabel=RA0/AN0
T 42850 48100 5 8 0 1 0 2 1
pintype=io
}
P 42800 47700 42500 47700 1 0 1
{
T 42700 47750 5 8 1 1 0 6 1
pinnumber=3
T 42700 47650 5 8 0 1 0 8 1
pinseq=3
T 42850 47700 9 8 1 1 0 0 1
pinlabel=RA1/AN1
T 42850 47700 5 8 0 1 0 2 1
pintype=io
}
P 42800 47300 42500 47299 1 0 1
{
T 42700 47349 5 8 1 1 0 6 1
pinnumber=4
T 42700 47249 5 8 0 1 0 8 1
pinseq=4
T 42850 47299 9 8 1 1 0 0 1
pinlabel=RB0/AN2
T 42850 47299 5 8 0 1 0 2 1
pintype=io
}
P 42800 46900 42500 46900 1 0 1
{
T 42700 46950 5 8 1 1 0 6 1
pinnumber=5
T 42700 46850 5 8 0 1 0 8 1
pinseq=5
T 42850 46900 9 8 1 1 0 0 1
pinlabel=RB1/AN3
T 42850 46900 5 8 0 1 0 2 1
pintype=io
}
P 42700 46500 42500 46500 1 0 1
{
T 42700 46550 5 8 1 1 0 6 1
pinnumber=6
T 42700 46450 5 8 0 1 0 8 1
pinseq=6
T 42850 46500 9 8 1 1 0 0 1
pinlabel=RB2/AN4/PGEC1
T 42850 46500 5 8 0 1 0 2 1
pintype=io
}
P 42700 46100 42500 46100 1 0 1
{
T 42700 46150 5 8 1 1 0 6 1
pinnumber=7
T 42700 46050 5 8 0 1 0 8 1
pinseq=7
T 42850 46100 9 8 1 1 0 0 1
pinlabel=RB3/AN5/PGED1
T 42850 46100 5 8 0 1 0 2 1
pintype=io
}
P 42800 45700 42500 45700 1 0 1
{
T 42700 45750 5 8 1 1 0 6 1
pinnumber=8
T 42700 45650 5 8 0 1 0 8 1
pinseq=8
T 42850 45700 9 8 1 1 0 0 1
pinlabel=Vss
T 42850 45700 5 8 0 1 0 2 1
pintype=pwr
}
P 42800 45300 42500 45300 1 0 1
{
T 42700 45350 5 8 1 1 0 6 1
pinnumber=9
T 42700 45250 5 8 0 1 0 8 1
pinseq=9
T 42850 45300 9 8 1 1 0 0 1
pinlabel=OSC1/CLKI/RA2
T 42850 45300 5 8 0 1 0 2 1
pintype=io
}
P 42800 44900 42500 44900 1 0 1
{
T 42700 44950 5 8 1 1 0 6 1
pinnumber=10
T 42700 44850 5 8 0 1 0 8 1
pinseq=10
T 42850 44900 9 8 1 1 0 0 1
pinlabel=OSC2/CLKO/RA3
T 42850 44900 5 8 0 1 0 2 1
pintype=io
}
P 42800 44500 42500 44500 1 0 1
{
T 42700 44550 5 8 1 1 0 6 1
pinnumber=11
T 42700 44450 5 8 0 1 0 8 1
pinseq=11
T 42850 44500 9 8 1 1 0 0 1
pinlabel=RB4
T 42850 44500 5 8 0 1 0 2 1
pintype=io
}
P 42800 44100 42500 44100 1 0 1
{
T 42700 44150 5 8 1 1 0 6 1
pinnumber=12
T 42700 44050 5 8 0 1 0 8 1
pinseq=12
T 42850 44100 9 8 1 1 0 0 1
pinlabel=RA4/AN24
T 42850 44100 5 8 0 1 0 2 1
pintype=io
}
P 42800 43700 42500 43700 1 0 1
{
T 42700 43750 5 8 1 1 0 6 1
pinnumber=13
T 42700 43650 5 8 0 1 0 8 1
pinseq=13
T 42850 43700 9 8 1 1 0 0 1
pinlabel=Vdd
T 42850 43700 5 8 0 1 0 2 1
pintype=pwr
}
P 42800 43300 42500 43300 1 0 1
{
T 42700 43350 5 8 1 1 0 6 1
pinnumber=14
T 42700 43250 1 8 0 1 0 8 1
pinseq=14
T 42850 43300 3 8 1 1 0 0 1
pinlabel=RB5/SDA1
T 42850 43300 1 8 0 1 0 2 1
pintype=io
}
P 45300 43300 45600 43300 1 0 1
{
T 45395 43345 5 8 1 1 0 0 1
pinnumber=15
T 45500 43350 1 8 0 1 180 2 1
pinseq=15
T 45245 43295 3 8 1 1 0 6 1
pinlabel=RB6/SCL1
T 45650 43300 1 8 0 1 180 8 1
pintype=io
}
P 45300 43700 45600 43700 1 0 1
{
T 45395 43745 5 8 1 1 0 0 1
pinnumber=16
T 45500 43750 1 8 0 1 180 2 1
pinseq=16
T 45245 43695 3 8 1 1 0 6 1
pinlabel=RB7/AN25/SCK1
T 45650 43700 1 8 0 1 180 8 1
pintype=io
}
P 45600 44100 45300 44100 1 0 0
{
T 45400 44150 5 8 1 1 0 0 1
pinnumber=17
T 45400 44050 1 8 0 1 0 2 1
pinseq=17
T 45250 44100 3 8 1 1 0 6 1
pinlabel=RB8/AN26/SDO1
T 45250 44100 1 8 0 1 0 8 1
pintype=io
}
P 45600 44500 45300 44500 1 0 0
{
T 45400 44550 5 8 1 1 0 0 1
pinnumber=18
T 45400 44450 1 8 0 1 0 2 1
pinseq=18
T 45250 44500 3 8 1 1 0 6 1
pinlabel=RB9/AN27/SDI1
T 45250 44500 1 8 0 1 0 8 1
pintype=io
}
P 45600 44900 45300 44900 1 0 0
{
T 45400 44950 5 8 1 1 0 0 1
pinnumber=19
T 45400 44850 5 8 0 1 0 2 1
pinseq=19
T 45250 44900 9 8 1 1 0 6 1
pinlabel=Vss
T 45250 44900 5 8 0 1 0 8 1
pintype=pwr
}
P 45600 45300 45300 45300 1 0 0
{
T 45400 45350 5 8 1 1 0 0 1
pinnumber=20
T 45400 45250 5 8 0 1 0 2 1
pinseq=20
T 45250 45300 9 8 1 1 0 6 1
pinlabel=Vcap
T 45250 45300 5 8 0 1 0 8 1
pintype=pwr
}
P 45600 45700 45300 45700 1 0 0
{
T 45400 45750 5 8 1 1 0 0 1
pinnumber=21
T 45400 45650 5 8 0 1 0 2 1
pinseq=21
T 45250 45700 9 8 1 1 0 6 1
pinlabel=RB10
T 45250 45700 5 8 0 1 0 8 1
pintype=io
}
P 45600 46100 45300 46100 1 0 0
{
T 45400 46150 5 8 1 1 0 0 1
pinnumber=22
T 45400 46050 5 8 0 1 0 2 1
pinseq=22
T 45250 46100 9 8 1 1 0 6 1
pinlabel=RB11
T 45250 46100 5 8 0 1 0 8 1
pintype=io
}
P 45600 46500 45300 46500 1 0 0
{
T 45400 46550 5 8 1 1 0 0 1
pinnumber=23
T 45400 46450 5 8 0 1 0 2 1
pinseq=23
T 45250 46500 9 8 1 1 0 6 1
pinlabel=RB12
T 45250 46500 5 8 0 1 0 8 1
pintype=io
}
P 45600 46900 45300 46900 1 0 0
{
T 45400 46950 5 8 1 1 0 0 1
pinnumber=24
T 45400 46850 5 8 0 1 0 2 1
pinseq=24
T 45250 46900 9 8 1 1 0 6 1
pinlabel=RB13
T 45250 46900 5 8 0 1 0 8 1
pintype=io
}
P 45600 47300 45300 47300 1 0 0
{
T 45400 47350 5 8 1 1 0 0 1
pinnumber=25
T 45400 47250 5 8 0 1 0 2 1
pinseq=25
T 45250 47300 9 8 1 1 0 6 1
pinlabel=RB14
T 45250 47300 5 8 0 1 0 8 1
pintype=io
}
P 45600 47700 45300 47700 1 0 0
{
T 45400 47750 5 8 1 1 0 0 1
pinnumber=26
T 45400 47650 5 8 0 1 0 2 1
pinseq=26
T 45250 47700 9 8 1 1 0 6 1
pinlabel=RB15
T 45250 47700 5 8 0 1 0 8 1
pintype=io
}
P 45600 48100 45300 48100 1 0 0
{
T 45400 48150 5 8 1 1 0 0 1
pinnumber=27
T 45400 48050 5 8 0 1 0 2 1
pinseq=27
T 45250 48100 9 8 1 1 0 6 1
pinlabel=AVss
T 45250 48100 5 8 0 1 0 8 1
pintype=pwr
}
P 45600 48500 45300 48500 1 0 0
{
T 45400 48550 5 8 1 1 0 0 1
pinnumber=28
T 45400 48450 5 8 0 1 0 2 1
pinseq=28
T 45250 48500 9 8 1 1 0 6 1
pinlabel=AVdd
T 45250 48500 5 8 0 1 0 8 1
pintype=pwr
}
L 42860 48661 43260 48661 3 0 0 0 -1 -1
T 45100 49000 8 10 0 1 0 0 1
refdes=U?
T 42800 49150 5 10 0 0 0 0 1
device=dsPIC33EVxxGMx02
T 42800 49550 5 10 0 0 0 0 1
footprint=DIP28
T 42800 49750 5 10 0 0 0 0 1
description=16-bit digital signal controller
T 42800 49350 5 10 0 0 0 0 1
numslots=0
T 42800 49950 5 10 0 0 0 0 1
documentation=http://ww1.microchip.com/downloads/en/DeviceDoc/70005144d.pdf
V 42750 48500 50 6 0 0 0 -1 -1 0 -1 -1 -1 -1 -1
T 42800 49000 9 10 1 0 0 0 1
dsPIC33EVxxGMx02
B 42700 46450 100 100 6 0 0 0 -1 -1 0 -1 -1 -1 -1 -1
B 42700 46050 100 100 6 0 0 0 -1 -1 0 -1 -1 -1 -1 -1
]
{
T 45100 49000 5 10 1 1 0 0 1
refdes=U1
T 42800 49150 5 10 0 0 0 0 1
device=dsPIC33EVxxGMx02
T 42800 49550 5 10 0 0 0 0 1
footprint=DIP28
}
C 44700 50600 1 0 0 EMBEDDEDcapacitor-1.sym
[
P 44700 50800 44900 50800 1 0 0
{
T 44850 50850 5 8 0 1 0 6 1
pinnumber=1
T 44850 50750 5 8 0 1 0 8 1
pinseq=1
T 44900 50800 9 8 0 1 0 0 1
pinlabel=1
T 44900 50800 5 8 0 1 0 2 1
pintype=pas
}
P 45600 50800 45400 50800 1 0 0
{
T 45450 50850 5 8 0 1 0 0 1
pinnumber=2
T 45450 50750 5 8 0 1 0 2 1
pinseq=2
T 45400 50800 9 8 0 1 0 6 1
pinlabel=2
T 45400 50800 5 8 0 1 0 8 1
pintype=pas
}
L 45100 51000 45100 50600 3 0 0 0 -1 -1
L 45200 51000 45200 50600 3 0 0 0 -1 -1
L 45400 50800 45200 50800 3 0 0 0 -1 -1
L 45100 50800 44900 50800 3 0 0 0 -1 -1
T 44900 51300 5 10 0 0 0 0 1
device=CAPACITOR
T 44900 51100 8 10 0 1 0 0 1
refdes=C?
T 44900 51900 5 10 0 0 0 0 1
description=capacitor
T 44900 51700 5 10 0 0 0 0 1
numslots=0
T 44900 51500 5 10 0 0 0 0 1
symversion=0.1
]
{
T 44900 51300 5 10 0 0 0 0 1
device=CAPACITOR
T 44900 51100 5 10 0 1 0 0 1
refdes=C?
T 44900 51500 5 10 0 0 0 0 1
symversion=0.1
T 44700 50600 5 10 1 1 0 0 1
value=0.1
}
C 41500 44800 1 90 0 EMBEDDEDcapacitor-1.sym
[
P 41300 44800 41300 45000 1 0 0
{
T 41250 44950 5 8 0 1 90 6 1
pinnumber=1
T 41350 44950 5 8 0 1 90 8 1
pinseq=1
T 41300 45000 9 8 0 1 90 0 1
pinlabel=1
T 41300 45000 5 8 0 1 90 2 1
pintype=pas
}
P 41300 45700 41300 45500 1 0 0
{
T 41250 45550 5 8 0 1 90 0 1
pinnumber=2
T 41350 45550 5 8 0 1 90 2 1
pinseq=2
T 41300 45500 9 8 0 1 90 6 1
pinlabel=2
T 41300 45500 5 8 0 1 90 8 1
pintype=pas
}
L 41100 45200 41500 45200 3 0 0 0 -1 -1
L 41100 45300 41500 45300 3 0 0 0 -1 -1
L 41300 45500 41300 45300 3 0 0 0 -1 -1
L 41300 45200 41300 45000 3 0 0 0 -1 -1
T 40800 45000 5 10 0 0 90 0 1
device=CAPACITOR
T 41000 45000 8 10 0 1 90 0 1
refdes=C?
T 40200 45000 5 10 0 0 90 0 1
description=capacitor
T 40400 45000 5 10 0 0 90 0 1
numslots=0
T 40600 45000 5 10 0 0 90 0 1
symversion=0.1
]
{
T 40800 45000 5 10 0 0 90 0 1
device=CAPACITOR
T 41000 45000 5 10 0 1 90 0 1
refdes=C?
T 40600 45000 5 10 0 0 90 0 1
symversion=0.1
T 41500 44800 5 10 1 1 0 0 1
value=0.1
}
C 46000 49300 1 0 0 EMBEDDEDcapacitor-1.sym
[
P 46000 49500 46200 49500 1 0 0
{
T 46150 49550 5 8 0 1 0 6 1
pinnumber=1
T 46150 49450 5 8 0 1 0 8 1
pinseq=1
T 46200 49500 9 8 0 1 0 0 1
pinlabel=1
T 46200 49500 5 8 0 1 0 2 1
pintype=pas
}
P 46900 49500 46700 49500 1 0 0
{
T 46750 49550 5 8 0 1 0 0 1
pinnumber=2
T 46750 49450 5 8 0 1 0 2 1
pinseq=2
T 46700 49500 9 8 0 1 0 6 1
pinlabel=2
T 46700 49500 5 8 0 1 0 8 1
pintype=pas
}
L 46400 49700 46400 49300 3 0 0 0 -1 -1
L 46500 49700 46500 49300 3 0 0 0 -1 -1
L 46700 49500 46500 49500 3 0 0 0 -1 -1
L 46400 49500 46200 49500 3 0 0 0 -1 -1
T 46200 50000 5 10 0 0 0 0 1
device=CAPACITOR
T 46200 49800 8 10 0 1 0 0 1
refdes=C?
T 46200 50600 5 10 0 0 0 0 1
description=capacitor
T 46200 50400 5 10 0 0 0 0 1
numslots=0
T 46200 50200 5 10 0 0 0 0 1
symversion=0.1
]
{
T 46200 50000 5 10 0 0 0 0 1
device=CAPACITOR
T 46200 49800 5 10 0 1 0 0 1
refdes=C?
T 46200 50200 5 10 0 0 0 0 1
symversion=0.1
T 46100 49300 5 10 1 1 0 0 1
value=0.1
}
C 45700 39500 1 90 0 EMBEDDEDcapacitor-1.sym
[
P 45500 39500 45500 39700 1 0 0
{
T 45450 39650 5 8 0 1 90 6 1
pinnumber=1
T 45550 39650 5 8 0 1 90 8 1
pinseq=1
T 45500 39700 9 8 0 1 90 0 1
pinlabel=1
T 45500 39700 5 8 0 1 90 2 1
pintype=pas
}
P 45500 40400 45500 40200 1 0 0
{
T 45450 40250 5 8 0 1 90 0 1
pinnumber=2
T 45550 40250 5 8 0 1 90 2 1
pinseq=2
T 45500 40200 9 8 0 1 90 6 1
pinlabel=2
T 45500 40200 5 8 0 1 90 8 1
pintype=pas
}
L 45300 39900 45700 39900 3 0 0 0 -1 -1
L 45300 40000 45700 40000 3 0 0 0 -1 -1
L 45500 40200 45500 40000 3 0 0 0 -1 -1
L 45500 39900 45500 39700 3 0 0 0 -1 -1
T 45000 39700 5 10 0 0 90 0 1
device=CAPACITOR
T 45200 39700 8 10 0 1 90 0 1
refdes=C?
T 44400 39700 5 10 0 0 90 0 1
description=capacitor
T 44600 39700 5 10 0 0 90 0 1
numslots=0
T 44800 39700 5 10 0 0 90 0 1
symversion=0.1
]
{
T 45000 39700 5 10 0 0 90 0 1
device=CAPACITOR
T 45200 39700 5 10 0 1 90 0 1
refdes=C?
T 44800 39700 5 10 0 0 90 0 1
symversion=0.1
T 45800 39800 5 10 1 1 180 0 1
value=0.1
}
C 45600 45100 1 0 0 EMBEDDEDcapacitor-2.sym
[
P 45600 45300 45800 45300 1 0 0
{
T 45750 45350 5 8 1 1 0 6 1
pinnumber=1
T 45800 45250 5 8 0 1 0 8 1
pinseq=1
T 45850 45300 9 8 0 1 0 0 1
pinlabel=+
T 45850 45300 5 8 0 1 0 2 1
pintype=pas
}
P 46500 45300 46300 45300 1 0 0
{
T 46350 45350 5 8 1 1 0 0 1
pinnumber=2
T 46300 45250 5 8 0 1 0 2 1
pinseq=2
T 46250 45300 9 8 0 1 0 6 1
pinlabel=-
T 46250 45300 5 8 0 1 0 8 1
pintype=pas
}
L 46000 45500 46000 45100 3 0 0 0 -1 -1
L 46300 45300 46100 45300 3 0 0 0 -1 -1
L 46000 45300 45800 45300 3 0 0 0 -1 -1
T 45800 45800 5 10 0 0 0 0 1
device=POLARIZED_CAPACITOR
A 46800 45300 700 165 30 3 0 0 0 -1 -1
L 45889 45500 45889 45400 3 0 0 0 -1 -1
L 45940 45449 45840 45449 3 0 0 0 -1 -1
T 45800 45600 8 10 0 1 0 0 1
refdes=C?
T 45800 46400 5 10 0 0 0 0 1
description=polarized capacitor
T 45800 46200 5 10 0 0 0 0 1
numslots=0
T 45800 46000 5 10 0 0 0 0 1
symversion=0.1
]
{
T 45800 45800 5 10 0 0 0 0 1
device=POLARIZED_CAPACITOR
T 45700 45500 5 10 1 1 0 0 1
refdes=C1
T 45800 46000 5 10 0 0 0 0 1
symversion=0.1
T 46200 45100 5 10 1 1 0 0 1
value=10u
}
C 40300 51600 1 0 0 EMBEDDEDresistor-1.sym
[
L 40900 51800 40800 51600 3 0 0 0 -1 -1
L 40800 51600 40700 51800 3 0 0 0 -1 -1
L 40700 51800 40600 51600 3 0 0 0 -1 -1
L 40600 51600 40500 51800 3 0 0 0 -1 -1
T 40600 52000 5 10 0 0 0 0 1
device=RESISTOR
L 40900 51800 41000 51600 3 0 0 0 -1 -1
L 41000 51600 41050 51700 3 0 0 0 -1 -1
P 41200 51700 41050 51700 1 0 0
{
T 41100 51750 5 8 0 1 0 0 1
pinnumber=2
T 41100 51750 5 8 0 0 0 0 1
pinseq=2
T 41100 51750 5 8 0 1 0 0 1
pinlabel=2
T 41100 51750 5 8 0 1 0 0 1
pintype=pas
}
P 40300 51700 40452 51700 1 0 0
{
T 40400 51750 5 8 0 1 0 0 1
pinnumber=1
T 40400 51750 5 8 0 0 0 0 1
pinseq=1
T 40400 51750 5 8 0 1 0 0 1
pinlabel=1
T 40400 51750 5 8 0 1 0 0 1
pintype=pas
}
L 40501 51800 40450 51700 3 0 0 0 -1 -1
T 40500 51900 8 10 0 1 0 0 1
refdes=R?
T 40300 51600 8 10 0 1 0 0 1
pins=2
T 40300 51600 8 10 0 1 0 0 1
class=DISCRETE
]
{
T 40600 52000 5 10 0 0 0 0 1
device=RESISTOR
T 40500 51900 5 10 0 1 0 0 1
refdes=R?
T 40900 51900 5 10 1 1 0 0 1
value=2K37
}
C 44200 49900 1 0 0 EMBEDDEDresistor-1.sym
[
L 44800 50100 44700 49900 3 0 0 0 -1 -1
L 44700 49900 44600 50100 3 0 0 0 -1 -1
L 44600 50100 44500 49900 3 0 0 0 -1 -1
L 44500 49900 44400 50100 3 0 0 0 -1 -1
T 44500 50300 5 10 0 0 0 0 1
device=RESISTOR
L 44800 50100 44900 49900 3 0 0 0 -1 -1
L 44900 49900 44950 50000 3 0 0 0 -1 -1
P 45100 50000 44950 50000 1 0 0
{
T 45000 50050 5 8 0 1 0 0 1
pinnumber=2
T 45000 50050 5 8 0 0 0 0 1
pinseq=2
T 45000 50050 5 8 0 1 0 0 1
pinlabel=2
T 45000 50050 5 8 0 1 0 0 1
pintype=pas
}
P 44200 50000 44352 50000 1 0 0
{
T 44300 50050 5 8 0 1 0 0 1
pinnumber=1
T 44300 50050 5 8 0 0 0 0 1
pinseq=1
T 44300 50050 5 8 0 1 0 0 1
pinlabel=1
T 44300 50050 5 8 0 1 0 0 1
pintype=pas
}
L 44401 50100 44350 50000 3 0 0 0 -1 -1
T 44400 50200 8 10 0 1 0 0 1
refdes=R?
T 44200 49900 8 10 0 1 0 0 1
pins=2
T 44200 49900 8 10 0 1 0 0 1
class=DISCRETE
]
{
T 44500 50300 5 10 0 0 0 0 1
device=RESISTOR
T 44400 50200 5 10 0 1 0 0 1
refdes=R?
T 45000 49800 5 10 1 1 0 0 1
value=47K
}
C 56200 43500 1 90 0 EMBEDDEDresistor-1.sym
[
L 56000 44100 56200 44000 3 0 0 0 -1 -1
L 56200 44000 56000 43900 3 0 0 0 -1 -1
L 56000 43900 56200 43800 3 0 0 0 -1 -1
L 56200 43800 56000 43700 3 0 0 0 -1 -1
T 55800 43800 5 10 0 0 90 0 1
device=RESISTOR
L 56000 44100 56200 44200 3 0 0 0 -1 -1
L 56200 44200 56100 44250 3 0 0 0 -1 -1
P 56100 44400 56100 44250 1 0 0
{
T 56050 44300 5 8 0 1 90 0 1
pinnumber=2
T 56050 44300 5 8 0 0 90 0 1
pinseq=2
T 56050 44300 5 8 0 1 90 0 1
pinlabel=2
T 56050 44300 5 8 0 1 90 0 1
pintype=pas
}
P 56100 43500 56100 43652 1 0 0
{
T 56050 43600 5 8 0 1 90 0 1
pinnumber=1
T 56050 43600 5 8 0 0 90 0 1
pinseq=1
T 56050 43600 5 8 0 1 90 0 1
pinlabel=1
T 56050 43600 5 8 0 1 90 0 1
pintype=pas
}
L 56000 43701 56100 43650 3 0 0 0 -1 -1
T 55900 43700 8 10 0 1 90 0 1
refdes=R?
T 56200 43500 8 10 0 1 90 0 1
pins=2
T 56200 43500 8 10 0 1 90 0 1
class=DISCRETE
]
{
T 55800 43800 5 10 0 0 90 0 1
device=RESISTOR
T 55800 43800 5 10 0 1 180 0 1
refdes=R?
T 56300 43700 5 10 1 1 0 0 1
value=82
}
C 53300 40600 1 180 0 EMBEDDEDresistor-1.sym
[
L 52700 40400 52800 40600 3 0 0 0 -1 -1
L 52800 40600 52900 40400 3 0 0 0 -1 -1
L 52900 40400 53000 40600 3 0 0 0 -1 -1
L 53000 40600 53100 40400 3 0 0 0 -1 -1
T 53000 40200 5 10 0 0 180 0 1
device=RESISTOR
L 52700 40400 52600 40600 3 0 0 0 -1 -1
L 52600 40600 52550 40500 3 0 0 0 -1 -1
P 52400 40500 52550 40500 1 0 0
{
T 52500 40450 5 8 0 1 180 0 1
pinnumber=2
T 52500 40450 5 8 0 0 180 0 1
pinseq=2
T 52500 40450 5 8 0 1 180 0 1
pinlabel=2
T 52500 40450 5 8 0 1 180 0 1
pintype=pas
}
P 53300 40500 53148 40500 1 0 0
{
T 53200 40450 5 8 0 1 180 0 1
pinnumber=1
T 53200 40450 5 8 0 0 180 0 1
pinseq=1
T 53200 40450 5 8 0 1 180 0 1
pinlabel=1
T 53200 40450 5 8 0 1 180 0 1
pintype=pas
}
L 53099 40400 53150 40500 3 0 0 0 -1 -1
T 53100 40300 8 10 0 1 180 0 1
refdes=R?
T 53300 40600 8 10 0 1 180 0 1
pins=2
T 53300 40600 8 10 0 1 180 0 1
class=DISCRETE
]
{
T 53000 40200 5 10 0 0 180 0 1
device=RESISTOR
T 53100 40300 5 10 0 1 180 0 1
refdes=R?
T 52900 40200 5 10 1 1 0 0 1
value=1K1
}
C 57400 42600 1 180 0 EMBEDDEDresistor-1.sym
[
L 56800 42400 56900 42600 3 0 0 0 -1 -1
L 56900 42600 57000 42400 3 0 0 0 -1 -1
L 57000 42400 57100 42600 3 0 0 0 -1 -1
L 57100 42600 57200 42400 3 0 0 0 -1 -1
T 57100 42200 5 10 0 0 180 0 1
device=RESISTOR
L 56800 42400 56700 42600 3 0 0 0 -1 -1
L 56700 42600 56650 42500 3 0 0 0 -1 -1
P 56500 42500 56650 42500 1 0 0
{
T 56600 42450 5 8 0 1 180 0 1
pinnumber=2
T 56600 42450 5 8 0 0 180 0 1
pinseq=2
T 56600 42450 5 8 0 1 180 0 1
pinlabel=2
T 56600 42450 5 8 0 1 180 0 1
pintype=pas
}
P 57400 42500 57248 42500 1 0 0
{
T 57300 42450 5 8 0 1 180 0 1
pinnumber=1
T 57300 42450 5 8 0 0 180 0 1
pinseq=1
T 57300 42450 5 8 0 1 180 0 1
pinlabel=1
T 57300 42450 5 8 0 1 180 0 1
pintype=pas
}
L 57199 42400 57250 42500 3 0 0 0 -1 -1
T 57200 42300 8 10 0 1 180 0 1
refdes=R?
T 57400 42600 8 10 0 1 180 0 1
pins=2
T 57400 42600 8 10 0 1 180 0 1
class=DISCRETE
]
{
T 57100 42200 5 10 0 0 180 0 1
device=RESISTOR
T 57200 42300 5 10 0 1 180 0 1
refdes=R?
T 56600 42200 5 10 1 1 0 0 1
value=412
}
C 53500 50100 1 90 0 EMBEDDEDresistor-1.sym
[
L 53300 50700 53500 50600 3 0 0 0 -1 -1
L 53500 50600 53300 50500 3 0 0 0 -1 -1
L 53300 50500 53500 50400 3 0 0 0 -1 -1
L 53500 50400 53300 50300 3 0 0 0 -1 -1
T 53100 50400 5 10 0 0 90 0 1
device=RESISTOR
L 53300 50700 53500 50800 3 0 0 0 -1 -1
L 53500 50800 53400 50850 3 0 0 0 -1 -1
P 53400 51000 53400 50850 1 0 0
{
T 53350 50900 5 8 0 1 90 0 1
pinnumber=2
T 53350 50900 5 8 0 0 90 0 1
pinseq=2
T 53350 50900 5 8 0 1 90 0 1
pinlabel=2
T 53350 50900 5 8 0 1 90 0 1
pintype=pas
}
P 53400 50100 53400 50252 1 0 0
{
T 53350 50200 5 8 0 1 90 0 1
pinnumber=1
T 53350 50200 5 8 0 0 90 0 1
pinseq=1
T 53350 50200 5 8 0 1 90 0 1
pinlabel=1
T 53350 50200 5 8 0 1 90 0 1
pintype=pas
}
L 53300 50301 53400 50250 3 0 0 0 -1 -1
T 53200 50300 8 10 0 1 90 0 1
refdes=R?
T 53500 50100 8 10 0 1 90 0 1
pins=2
T 53500 50100 8 10 0 1 90 0 1
class=DISCRETE
]
{
T 53100 50400 5 10 0 0 90 0 1
device=RESISTOR
T 53200 50300 5 10 0 1 90 0 1
refdes=R?
T 53500 50100 5 10 1 1 0 0 1
value=412
}
C 58400 41600 1 180 0 EMBEDDEDresistor-1.sym
[
L 57800 41400 57900 41600 3 0 0 0 -1 -1
L 57900 41600 58000 41400 3 0 0 0 -1 -1
L 58000 41400 58100 41600 3 0 0 0 -1 -1
L 58100 41600 58200 41400 3 0 0 0 -1 -1
T 58100 41200 5 10 0 0 180 0 1
device=RESISTOR
L 57800 41400 57700 41600 3 0 0 0 -1 -1
L 57700 41600 57650 41500 3 0 0 0 -1 -1
P 57500 41500 57650 41500 1 0 0
{
T 57600 41450 5 8 0 1 180 0 1
pinnumber=2
T 57600 41450 5 8 0 0 180 0 1
pinseq=2
T 57600 41450 5 8 0 1 180 0 1
pinlabel=2
T 57600 41450 5 8 0 1 180 0 1
pintype=pas
}
P 58400 41500 58248 41500 1 0 0
{
T 58300 41450 5 8 0 1 180 0 1
pinnumber=1
T 58300 41450 5 8 0 0 180 0 1
pinseq=1
T 58300 41450 5 8 0 1 180 0 1
pinlabel=1
T 58300 41450 5 8 0 1 180 0 1
pintype=pas
}
L 58199 41400 58250 41500 3 0 0 0 -1 -1
T 58200 41300 8 10 0 1 180 0 1
refdes=R?
T 58400 41600 8 10 0 1 180 0 1
pins=2
T 58400 41600 8 10 0 1 180 0 1
class=DISCRETE
]
{
T 58100 41200 5 10 0 0 180 0 1
device=RESISTOR
T 58200 41300 5 10 0 1 180 0 1
refdes=R?
T 57600 41200 5 10 1 1 0 0 1
value=412
}
C 54100 43600 1 90 0 EMBEDDEDresistor-1.sym
[
L 53900 44200 54100 44100 3 0 0 0 -1 -1
L 54100 44100 53900 44000 3 0 0 0 -1 -1
L 53900 44000 54100 43900 3 0 0 0 -1 -1
L 54100 43900 53900 43800 3 0 0 0 -1 -1
T 53700 43900 5 10 0 0 90 0 1
device=RESISTOR
L 53900 44200 54100 44300 3 0 0 0 -1 -1
L 54100 44300 54000 44350 3 0 0 0 -1 -1
P 54000 44500 54000 44350 1 0 0
{
T 53950 44400 5 8 0 1 90 0 1
pinnumber=2
T 53950 44400 5 8 0 0 90 0 1
pinseq=2
T 53950 44400 5 8 0 1 90 0 1
pinlabel=2
T 53950 44400 5 8 0 1 90 0 1
pintype=pas
}
P 54000 43600 54000 43752 1 0 0
{
T 53950 43700 5 8 0 1 90 0 1
pinnumber=1
T 53950 43700 5 8 0 0 90 0 1
pinseq=1
T 53950 43700 5 8 0 1 90 0 1
pinlabel=1
T 53950 43700 5 8 0 1 90 0 1
pintype=pas
}
L 53900 43801 54000 43750 3 0 0 0 -1 -1
T 53800 43800 8 10 0 1 90 0 1
refdes=R?
T 54100 43600 8 10 0 1 90 0 1
pins=2
T 54100 43600 8 10 0 1 90 0 1
class=DISCRETE
]
{
T 53700 43900 5 10 0 0 90 0 1
device=RESISTOR
T 53900 43900 5 10 0 1 180 0 1
refdes=R?
T 54100 43600 5 10 1 1 0 0 1
value=3K32
}
C 56400 41600 1 180 0 EMBEDDEDresistor-1.sym
[
L 55800 41400 55900 41600 3 0 0 0 -1 -1
L 55900 41600 56000 41400 3 0 0 0 -1 -1
L 56000 41400 56100 41600 3 0 0 0 -1 -1
L 56100 41600 56200 41400 3 0 0 0 -1 -1
T 56100 41200 5 10 0 0 180 0 1
device=RESISTOR
L 55800 41400 55700 41600 3 0 0 0 -1 -1
L 55700 41600 55650 41500 3 0 0 0 -1 -1
P 55500 41500 55650 41500 1 0 0
{
T 55600 41450 5 8 0 1 180 0 1
pinnumber=2
T 55600 41450 5 8 0 0 180 0 1
pinseq=2
T 55600 41450 5 8 0 1 180 0 1
pinlabel=2
T 55600 41450 5 8 0 1 180 0 1
pintype=pas
}
P 56400 41500 56248 41500 1 0 0
{
T 56300 41450 5 8 0 1 180 0 1
pinnumber=1
T 56300 41450 5 8 0 0 180 0 1
pinseq=1
T 56300 41450 5 8 0 1 180 0 1
pinlabel=1
T 56300 41450 5 8 0 1 180 0 1
pintype=pas
}
L 56199 41400 56250 41500 3 0 0 0 -1 -1
T 56200 41300 8 10 0 1 180 0 1
refdes=R?
T 56400 41600 8 10 0 1 180 0 1
pins=2
T 56400 41600 8 10 0 1 180 0 1
class=DISCRETE
]
{
T 56100 41200 5 10 0 0 180 0 1
device=RESISTOR
T 56200 41300 5 10 0 1 180 0 1
refdes=R?
T 55900 41200 5 10 1 1 0 0 1
value=412
}
C 53300 41200 1 180 0 EMBEDDEDresistor-1.sym
[
L 52700 41000 52800 41200 3 0 0 0 -1 -1
L 52800 41200 52900 41000 3 0 0 0 -1 -1
L 52900 41000 53000 41200 3 0 0 0 -1 -1
L 53000 41200 53100 41000 3 0 0 0 -1 -1
T 53000 40800 5 10 0 0 180 0 1
device=RESISTOR
L 52700 41000 52600 41200 3 0 0 0 -1 -1
L 52600 41200 52550 41100 3 0 0 0 -1 -1
P 52400 41100 52550 41100 1 0 0
{
T 52500 41050 5 8 0 1 180 0 1
pinnumber=2
T 52500 41050 5 8 0 0 180 0 1
pinseq=2
T 52500 41050 5 8 0 1 180 0 1
pinlabel=2
T 52500 41050 5 8 0 1 180 0 1
pintype=pas
}
P 53300 41100 53148 41100 1 0 0
{
T 53200 41050 5 8 0 1 180 0 1
pinnumber=1
T 53200 41050 5 8 0 0 180 0 1
pinseq=1
T 53200 41050 5 8 0 1 180 0 1
pinlabel=1
T 53200 41050 5 8 0 1 180 0 1
pintype=pas
}
L 53099 41000 53150 41100 3 0 0 0 -1 -1
T 53100 40900 8 10 0 1 180 0 1
refdes=R?
T 53300 41200 8 10 0 1 180 0 1
pins=2
T 53300 41200 8 10 0 1 180 0 1
class=DISCRETE
]
{
T 53000 40800 5 10 0 0 180 0 1
device=RESISTOR
T 53100 40900 5 10 0 1 180 0 1
refdes=R?
T 52900 40800 5 10 1 1 0 0 1
value=1K1
}
C 57400 40600 1 180 0 EMBEDDEDresistor-1.sym
[
L 56800 40400 56900 40600 3 0 0 0 -1 -1
L 56900 40600 57000 40400 3 0 0 0 -1 -1
L 57000 40400 57100 40600 3 0 0 0 -1 -1
L 57100 40600 57200 40400 3 0 0 0 -1 -1
T 57100 40200 5 10 0 0 180 0 1
device=RESISTOR
L 56800 40400 56700 40600 3 0 0 0 -1 -1
L 56700 40600 56650 40500 3 0 0 0 -1 -1
P 56500 40500 56650 40500 1 0 0
{
T 56600 40450 5 8 0 1 180 0 1
pinnumber=2
T 56600 40450 5 8 0 0 180 0 1
pinseq=2
T 56600 40450 5 8 0 1 180 0 1
pinlabel=2
T 56600 40450 5 8 0 1 180 0 1
pintype=pas
}
P 57400 40500 57248 40500 1 0 0
{
T 57300 40450 5 8 0 1 180 0 1
pinnumber=1
T 57300 40450 5 8 0 0 180 0 1
pinseq=1
T 57300 40450 5 8 0 1 180 0 1
pinlabel=1
T 57300 40450 5 8 0 1 180 0 1
pintype=pas
}
L 57199 40400 57250 40500 3 0 0 0 -1 -1
T 57200 40300 8 10 0 1 180 0 1
refdes=R?
T 57400 40600 8 10 0 1 180 0 1
pins=2
T 57400 40600 8 10 0 1 180 0 1
class=DISCRETE
]
{
T 57100 40200 5 10 0 0 180 0 1
device=RESISTOR
T 57200 40300 5 10 0 1 180 0 1
refdes=R?
T 57000 40200 5 10 1 1 0 0 1
value=412
}
C 54600 43600 1 90 0 EMBEDDEDresistor-1.sym
[
L 54400 44200 54600 44100 3 0 0 0 -1 -1
L 54600 44100 54400 44000 3 0 0 0 -1 -1
L 54400 44000 54600 43900 3 0 0 0 -1 -1
L 54600 43900 54400 43800 3 0 0 0 -1 -1
T 54200 43900 5 10 0 0 90 0 1
device=RESISTOR
L 54400 44200 54600 44300 3 0 0 0 -1 -1
L 54600 44300 54500 44350 3 0 0 0 -1 -1
P 54500 44500 54500 44350 1 0 0
{
T 54450 44400 5 8 0 1 90 0 1
pinnumber=2
T 54450 44400 5 8 0 0 90 0 1
pinseq=2
T 54450 44400 5 8 0 1 90 0 1
pinlabel=2
T 54450 44400 5 8 0 1 90 0 1
pintype=pas
}
P 54500 43600 54500 43752 1 0 0
{
T 54450 43700 5 8 0 1 90 0 1
pinnumber=1
T 54450 43700 5 8 0 0 90 0 1
pinseq=1
T 54450 43700 5 8 0 1 90 0 1
pinlabel=1
T 54450 43700 5 8 0 1 90 0 1
pintype=pas
}
L 54400 43801 54500 43750 3 0 0 0 -1 -1
T 54300 43800 8 10 0 1 90 0 1
refdes=R?
T 54600 43600 8 10 0 1 90 0 1
pins=2
T 54600 43600 8 10 0 1 90 0 1
class=DISCRETE
]
{
T 54200 43900 5 10 0 0 90 0 1
device=RESISTOR
T 54300 44000 5 10 0 1 180 0 1
refdes=R?
T 54600 43600 5 10 1 1 0 0 1
value=3K32
}
C 53300 41800 1 180 0 EMBEDDEDresistor-1.sym
[
L 52700 41600 52800 41800 3 0 0 0 -1 -1
L 52800 41800 52900 41600 3 0 0 0 -1 -1
L 52900 41600 53000 41800 3 0 0 0 -1 -1
L 53000 41800 53100 41600 3 0 0 0 -1 -1
T 53000 41400 5 10 0 0 180 0 1
device=RESISTOR
L 52700 41600 52600 41800 3 0 0 0 -1 -1
L 52600 41800 52550 41700 3 0 0 0 -1 -1
P 52400 41700 52550 41700 1 0 0
{
T 52500 41650 5 8 0 1 180 0 1
pinnumber=2
T 52500 41650 5 8 0 0 180 0 1
pinseq=2
T 52500 41650 5 8 0 1 180 0 1
pinlabel=2
T 52500 41650 5 8 0 1 180 0 1
pintype=pas
}
P 53300 41700 53148 41700 1 0 0
{
T 53200 41650 5 8 0 1 180 0 1
pinnumber=1
T 53200 41650 5 8 0 0 180 0 1
pinseq=1
T 53200 41650 5 8 0 1 180 0 1
pinlabel=1
T 53200 41650 5 8 0 1 180 0 1
pintype=pas
}
L 53099 41600 53150 41700 3 0 0 0 -1 -1
T 53100 41500 8 10 0 1 180 0 1
refdes=R?
T 53300 41800 8 10 0 1 180 0 1
pins=2
T 53300 41800 8 10 0 1 180 0 1
class=DISCRETE
]
{
T 53000 41400 5 10 0 0 180 0 1
device=RESISTOR
T 53100 41500 5 10 0 1 180 0 1
refdes=R?
T 52900 41400 5 10 1 1 0 0 1
value=1K1
}
C 53600 43600 1 90 0 EMBEDDEDresistor-1.sym
[
L 53400 44200 53600 44100 3 0 0 0 -1 -1
L 53600 44100 53400 44000 3 0 0 0 -1 -1
L 53400 44000 53600 43900 3 0 0 0 -1 -1
L 53600 43900 53400 43800 3 0 0 0 -1 -1
T 53200 43900 5 10 0 0 90 0 1
device=RESISTOR
L 53400 44200 53600 44300 3 0 0 0 -1 -1
L 53600 44300 53500 44350 3 0 0 0 -1 -1
P 53500 44500 53500 44350 1 0 0
{
T 53450 44400 5 8 0 1 90 0 1
pinnumber=2
T 53450 44400 5 8 0 0 90 0 1
pinseq=2
T 53450 44400 5 8 0 1 90 0 1
pinlabel=2
T 53450 44400 5 8 0 1 90 0 1
pintype=pas
}
P 53500 43600 53500 43752 1 0 0
{
T 53450 43700 5 8 0 1 90 0 1
pinnumber=1
T 53450 43700 5 8 0 0 90 0 1
pinseq=1
T 53450 43700 5 8 0 1 90 0 1
pinlabel=1
T 53450 43700 5 8 0 1 90 0 1
pintype=pas
}
L 53400 43801 53500 43750 3 0 0 0 -1 -1
T 53300 43800 8 10 0 1 90 0 1
refdes=R?
T 53600 43600 8 10 0 1 90 0 1
pins=2
T 53600 43600 8 10 0 1 90 0 1
class=DISCRETE
]
{
T 53200 43900 5 10 0 0 90 0 1
device=RESISTOR
T 53400 44100 5 10 0 1 180 0 1
refdes=R?
T 53600 43600 5 10 1 1 0 0 1
value=3K32
}
C 54500 50700 1 270 0 EMBEDDEDresistor-variable-1.sym
[
P 54950 50200 55100 50200 1 0 1
{
T 55000 50300 5 8 0 1 270 0 1
pinnumber=3
T 55000 50300 5 8 0 0 270 0 1
pinseq=3
T 55000 50300 5 8 0 1 270 0 1
pinlabel=3
T 55000 50300 5 8 0 1 270 0 1
pintype=pas
}
L 54700 50200 54801 50252 3 0 0 0 -1 -1
L 54701 50199 54802 50147 3 0 0 0 -1 -1
L 54700 50100 54500 50200 3 0 0 0 -1 -1
L 54500 50200 54700 50300 3 0 0 0 -1 -1
L 54700 50300 54500 50400 3 0 0 0 -1 -1
L 54500 50400 54700 50500 3 0 0 0 -1 -1
T 55400 49900 5 10 0 0 270 0 1
device=VARIABLE_RESISTOR
L 54700 50100 54500 50000 3 0 0 0 -1 -1
L 54500 50000 54600 49950 3 0 0 0 -1 -1
P 54600 49800 54600 49950 1 0 0
{
T 54650 49900 5 8 0 1 270 0 1
pinnumber=2
T 54650 49900 5 8 0 0 270 0 1
pinseq=2
T 54650 49900 5 8 0 1 270 0 1
pinlabel=2
T 54650 49900 5 8 0 1 270 0 1
pintype=pas
}
P 54600 50700 54600 50548 1 0 0
{
T 54650 50600 5 8 0 1 270 0 1
pinnumber=1
T 54650 50600 5 8 0 0 270 0 1
pinseq=1
T 54650 50600 5 8 0 1 270 0 1
pinlabel=1
T 54650 50600 5 8 0 1 270 0 1
pintype=pas
}
L 54700 50499 54600 50550 3 0 0 0 -1 -1
L 54700 50200 54950 50200 3 0 0 0 -1 -1
T 54900 50100 8 10 0 1 270 0 1
refdes=R?
]
{
T 55400 49900 5 10 0 0 270 0 1
device=VARIABLE_RESISTOR
T 54900 50100 5 10 0 1 270 0 1
refdes=R?
T 54800 50400 5 10 1 1 0 0 1
value=1K
}
C 45300 51700 1 0 0 EMBEDDEDswitch-pushbutton-no-1.sym
[
T 45700 52000 8 10 0 1 0 0 1
refdes=S?
P 45300 51700 45450 51700 1 0 0
{
T 45350 51750 5 8 1 1 0 0 1
pinnumber=1
T 45350 51750 5 8 0 0 0 0 1
pinseq=1
T 45350 51750 5 8 0 1 0 0 1
pinlabel=1
T 45350 51750 5 8 0 1 0 0 1
pintype=pas
}
P 46150 51700 46300 51700 1 0 1
{
T 46200 51750 5 8 1 1 0 0 1
pinnumber=2
T 46200 51750 5 8 0 0 0 0 1
pinseq=2
T 46200 51750 5 8 0 1 0 0 1
pinlabel=2
T 46200 51750 5 8 0 1 0 0 1
pintype=pas
}
L 45450 51700 45625 51700 3 0 0 0 -1 -1
L 46150 51700 45975 51700 3 0 0 0 -1 -1
L 45600 51785 46000 51785 3 0 0 0 -1 -1
V 45639 51700 14 3 0 0 0 -1 -1 0 -1 -1 -1 -1 -1
V 45962 51700 14 3 0 0 0 -1 -1 0 -1 -1 -1 -1 -1
L 45770 51955 45820 51955 3 0 0 0 -1 -1
L 45770 51905 45820 51905 3 0 0 0 -1 -1
L 45770 51905 45795 51855 3 0 0 0 -1 -1
L 45820 51905 45795 51855 3 0 0 0 -1 -1
L 45795 51905 45795 51955 3 0 0 0 -1 -1
L 45795 51855 45795 51786 3 0 0 0 -1 -1
T 45700 52300 8 10 0 0 0 0 1
device=SWITCH_PUSHBUTTON_NO
]
{
T 45700 52000 5 10 1 1 0 0 1
refdes=S5
T 45700 52300 5 10 0 0 0 0 1
device=SWITCH_PUSHBUTTON_NO
}
C 56500 41500 1 0 0 EMBEDDEDswitch-pushbutton-no-1.sym
[
T 56900 41800 8 10 0 1 0 0 1
refdes=S?
P 56500 41500 56650 41500 1 0 0
{
T 56550 41550 5 8 1 1 0 0 1
pinnumber=1
T 56550 41550 5 8 0 0 0 0 1
pinseq=1
T 56550 41550 5 8 0 1 0 0 1
pinlabel=1
T 56550 41550 5 8 0 1 0 0 1
pintype=pas
}
P 57350 41500 57500 41500 1 0 1
{
T 57400 41550 5 8 1 1 0 0 1
pinnumber=2
T 57400 41550 5 8 0 0 0 0 1
pinseq=2
T 57400 41550 5 8 0 1 0 0 1
pinlabel=2
T 57400 41550 5 8 0 1 0 0 1
pintype=pas
}
L 56650 41500 56825 41500 3 0 0 0 -1 -1
L 57350 41500 57175 41500 3 0 0 0 -1 -1
L 56800 41585 57200 41585 3 0 0 0 -1 -1
V 56839 41500 14 3 0 0 0 -1 -1 0 -1 -1 -1 -1 -1
V 57162 41500 14 3 0 0 0 -1 -1 0 -1 -1 -1 -1 -1
L 56970 41755 57020 41755 3 0 0 0 -1 -1
L 56970 41705 57020 41705 3 0 0 0 -1 -1
L 56970 41705 56995 41655 3 0 0 0 -1 -1
L 57020 41705 56995 41655 3 0 0 0 -1 -1
L 56995 41705 56995 41755 3 0 0 0 -1 -1
L 56995 41655 56995 41586 3 0 0 0 -1 -1
T 56900 42100 8 10 0 0 0 0 1
device=SWITCH_PUSHBUTTON_NO
]
{
T 56900 41800 5 10 1 1 0 0 1
refdes=S1
T 56900 42100 5 10 0 0 0 0 1
device=SWITCH_PUSHBUTTON_NO
}
C 55500 42500 1 0 0 EMBEDDEDswitch-pushbutton-no-1.sym
[
T 55900 42800 8 10 0 1 0 0 1
refdes=S?
P 55500 42500 55650 42500 1 0 0
{
T 55550 42550 5 8 1 1 0 0 1
pinnumber=1
T 55550 42550 5 8 0 0 0 0 1
pinseq=1
T 55550 42550 5 8 0 1 0 0 1
pinlabel=1
T 55550 42550 5 8 0 1 0 0 1
pintype=pas
}
P 56350 42500 56500 42500 1 0 1
{
T 56400 42550 5 8 1 1 0 0 1
pinnumber=2
T 56400 42550 5 8 0 0 0 0 1
pinseq=2
T 56400 42550 5 8 0 1 0 0 1
pinlabel=2
T 56400 42550 5 8 0 1 0 0 1
pintype=pas
}
L 55650 42500 55825 42500 3 0 0 0 -1 -1
L 56350 42500 56175 42500 3 0 0 0 -1 -1
L 55800 42585 56200 42585 3 0 0 0 -1 -1
V 55839 42500 14 3 0 0 0 -1 -1 0 -1 -1 -1 -1 -1
V 56162 42500 14 3 0 0 0 -1 -1 0 -1 -1 -1 -1 -1
L 55970 42755 56020 42755 3 0 0 0 -1 -1
L 55970 42705 56020 42705 3 0 0 0 -1 -1
L 55970 42705 55995 42655 3 0 0 0 -1 -1
L 56020 42705 55995 42655 3 0 0 0 -1 -1
L 55995 42705 55995 42755 3 0 0 0 -1 -1
L 55995 42655 55995 42586 3 0 0 0 -1 -1
T 55900 43100 8 10 0 0 0 0 1
device=SWITCH_PUSHBUTTON_NO
]
{
T 55900 42800 5 10 1 1 0 0 1
refdes=S2
T 55900 43100 5 10 0 0 0 0 1
device=SWITCH_PUSHBUTTON_NO
}
C 55500 40500 1 0 0 EMBEDDEDswitch-pushbutton-no-1.sym
[
T 55900 40800 8 10 0 1 0 0 1
refdes=S?
P 55500 40500 55650 40500 1 0 0
{
T 55550 40550 5 8 1 1 0 0 1
pinnumber=1
T 55550 40550 5 8 0 0 0 0 1
pinseq=1
T 55550 40550 5 8 0 1 0 0 1
pinlabel=1
T 55550 40550 5 8 0 1 0 0 1
pintype=pas
}
P 56350 40500 56500 40500 1 0 1
{
T 56400 40550 5 8 1 1 0 0 1
pinnumber=2
T 56400 40550 5 8 0 0 0 0 1
pinseq=2
T 56400 40550 5 8 0 1 0 0 1
pinlabel=2
T 56400 40550 5 8 0 1 0 0 1
pintype=pas
}
L 55650 40500 55825 40500 3 0 0 0 -1 -1
L 56350 40500 56175 40500 3 0 0 0 -1 -1
L 55800 40585 56200 40585 3 0 0 0 -1 -1
V 55839 40500 14 3 0 0 0 -1 -1 0 -1 -1 -1 -1 -1
V 56162 40500 14 3 0 0 0 -1 -1 0 -1 -1 -1 -1 -1
L 55970 40755 56020 40755 3 0 0 0 -1 -1
L 55970 40705 56020 40705 3 0 0 0 -1 -1
L 55970 40705 55995 40655 3 0 0 0 -1 -1
L 56020 40705 55995 40655 3 0 0 0 -1 -1
L 55995 40705 55995 40755 3 0 0 0 -1 -1
L 55995 40655 55995 40586 3 0 0 0 -1 -1
T 55900 41100 8 10 0 0 0 0 1
device=SWITCH_PUSHBUTTON_NO
]
{
T 55900 40800 5 10 1 1 0 0 1
refdes=S3
T 55900 41100 5 10 0 0 0 0 1
device=SWITCH_PUSHBUTTON_NO
}
C 54500 41500 1 0 0 EMBEDDEDswitch-pushbutton-no-1.sym
[
T 54900 41800 8 10 0 1 0 0 1
refdes=S?
P 54500 41500 54650 41500 1 0 0
{
T 54550 41550 5 8 1 1 0 0 1
pinnumber=1
T 54550 41550 5 8 0 0 0 0 1
pinseq=1
T 54550 41550 5 8 0 1 0 0 1
pinlabel=1
T 54550 41550 5 8 0 1 0 0 1
pintype=pas
}
P 55350 41500 55500 41500 1 0 1
{
T 55400 41550 5 8 1 1 0 0 1
pinnumber=2
T 55400 41550 5 8 0 0 0 0 1
pinseq=2
T 55400 41550 5 8 0 1 0 0 1
pinlabel=2
T 55400 41550 5 8 0 1 0 0 1
pintype=pas
}
L 54650 41500 54825 41500 3 0 0 0 -1 -1
L 55350 41500 55175 41500 3 0 0 0 -1 -1
L 54800 41585 55200 41585 3 0 0 0 -1 -1
V 54839 41500 14 3 0 0 0 -1 -1 0 -1 -1 -1 -1 -1
V 55162 41500 14 3 0 0 0 -1 -1 0 -1 -1 -1 -1 -1
L 54970 41755 55020 41755 3 0 0 0 -1 -1
L 54970 41705 55020 41705 3 0 0 0 -1 -1
L 54970 41705 54995 41655 3 0 0 0 -1 -1
L 55020 41705 54995 41655 3 0 0 0 -1 -1
L 54995 41705 54995 41755 3 0 0 0 -1 -1
L 54995 41655 54995 41586 3 0 0 0 -1 -1
T 54900 42100 8 10 0 0 0 0 1
device=SWITCH_PUSHBUTTON_NO
]
{
T 54900 41800 5 10 1 1 0 0 1
refdes=S4
T 54900 42100 5 10 0 0 0 0 1
device=SWITCH_PUSHBUTTON_NO
}
C 40300 51500 1 0 1 EMBEDDEDled-1.sym
[
P 40300 51700 40100 51700 1 0 0
{
T 40150 51750 5 8 1 1 0 0 1
pinnumber=1
T 40150 51650 5 8 0 1 0 2 1
pinseq=1
T 40050 51700 9 8 0 1 0 6 1
pinlabel=A
T 40050 51700 5 8 0 1 0 8 1
pintype=pas
}
P 39400 51700 39600 51700 1 0 0
{
T 39550 51750 5 8 1 1 0 6 1
pinnumber=2
T 39550 51650 5 8 0 1 0 8 1
pinseq=2
T 39650 51700 9 8 0 1 0 0 1
pinlabel=K
T 39650 51700 5 8 0 1 0 2 1
pintype=pas
}
L 39900 51800 39800 51700 3 0 0 0 -1 -1
L 39800 51700 39900 51600 3 0 0 0 -1 -1
L 39900 51800 39900 51600 3 0 0 0 -1 -1
L 39800 51800 39800 51600 3 0 0 0 -1 -1
L 39800 51700 39600 51700 3 0 0 0 -1 -1
L 39900 51700 40100 51700 3 0 0 0 -1 -1
V 39850 51700 200 3 0 0 0 -1 -1 0 -1 -1 -1 -1 -1
T 39500 52100 5 10 0 0 0 6 1
device=LED
L 39784 52003 39683 52104 3 0 0 0 -1 -1
L 39683 52104 39679 52055 3 0 0 0 -1 -1
L 39679 52055 39578 52157 3 0 0 0 -1 -1
L 39816 51918 39715 52018 3 0 0 0 -1 -1
L 39715 52018 39711 51969 3 0 0 0 -1 -1
L 39711 51969 39610 52070 3 0 0 0 -1 -1
T 39500 51900 8 10 0 1 0 6 1
refdes=LED?
T 39500 52700 5 10 0 0 0 6 1
description=LED
T 39500 52500 5 10 0 0 0 6 1
numslots=0
T 39500 52300 5 10 0 0 0 6 1
symversion=0.1
]
{
T 39500 52100 5 10 0 0 0 6 1
device=LED
T 39500 51900 5 10 1 1 0 6 1
refdes=LED4
T 39500 52300 5 10 0 0 0 6 1
symversion=0.1
}
C 51500 41500 1 0 0 EMBEDDEDled-1.sym
[
P 51500 41700 51700 41700 1 0 0
{
T 51650 41750 5 8 1 1 0 6 1
pinnumber=1
T 51650 41650 5 8 0 1 0 8 1
pinseq=1
T 51750 41700 9 8 0 1 0 0 1
pinlabel=A
T 51750 41700 5 8 0 1 0 2 1
pintype=pas
}
P 52400 41700 52200 41700 1 0 0
{
T 52250 41750 5 8 1 1 0 0 1
pinnumber=2
T 52250 41650 5 8 0 1 0 2 1
pinseq=2
T 52150 41700 9 8 0 1 0 6 1
pinlabel=K
T 52150 41700 5 8 0 1 0 8 1
pintype=pas
}
L 51900 41800 52000 41700 3 0 0 0 -1 -1
L 52000 41700 51900 41600 3 0 0 0 -1 -1
L 51900 41800 51900 41600 3 0 0 0 -1 -1
L 52000 41800 52000 41600 3 0 0 0 -1 -1
L 52000 41700 52200 41700 3 0 0 0 -1 -1
L 51900 41700 51700 41700 3 0 0 0 -1 -1
V 51950 41700 200 3 0 0 0 -1 -1 0 -1 -1 -1 -1 -1
T 52300 42100 5 10 0 0 0 0 1
device=LED
L 52016 42003 52117 42104 3 0 0 0 -1 -1
L 52117 42104 52121 42055 3 0 0 0 -1 -1
L 52121 42055 52222 42157 3 0 0 0 -1 -1
L 51984 41918 52085 42018 3 0 0 0 -1 -1
L 52085 42018 52089 41969 3 0 0 0 -1 -1
L 52089 41969 52190 42070 3 0 0 0 -1 -1
T 52300 41900 8 10 0 1 0 0 1
refdes=LED?
T 52300 42700 5 10 0 0 0 0 1
description=LED
T 52300 42500 5 10 0 0 0 0 1
numslots=0
T 52300 42300 5 10 0 0 0 0 1
symversion=0.1
]
{
T 52300 42100 5 10 0 0 0 0 1
device=LED
T 51300 41500 5 10 1 1 0 0 1
refdes=LED3
T 52300 42300 5 10 0 0 0 0 1
symversion=0.1
}
C 51500 40900 1 0 0 EMBEDDEDled-1.sym
[
P 51500 41100 51700 41100 1 0 0
{
T 51650 41150 5 8 1 1 0 6 1
pinnumber=1
T 51650 41050 5 8 0 1 0 8 1
pinseq=1
T 51750 41100 9 8 0 1 0 0 1
pinlabel=A
T 51750 41100 5 8 0 1 0 2 1
pintype=pas
}
P 52400 41100 52200 41100 1 0 0
{
T 52250 41150 5 8 1 1 0 0 1
pinnumber=2
T 52250 41050 5 8 0 1 0 2 1
pinseq=2
T 52150 41100 9 8 0 1 0 6 1
pinlabel=K
T 52150 41100 5 8 0 1 0 8 1
pintype=pas
}
L 51900 41200 52000 41100 3 0 0 0 -1 -1
L 52000 41100 51900 41000 3 0 0 0 -1 -1
L 51900 41200 51900 41000 3 0 0 0 -1 -1
L 52000 41200 52000 41000 3 0 0 0 -1 -1
L 52000 41100 52200 41100 3 0 0 0 -1 -1
L 51900 41100 51700 41100 3 0 0 0 -1 -1
V 51950 41100 200 3 0 0 0 -1 -1 0 -1 -1 -1 -1 -1
T 52300 41500 5 10 0 0 0 0 1
device=LED
L 52016 41403 52117 41504 3 0 0 0 -1 -1
L 52117 41504 52121 41455 3 0 0 0 -1 -1
L 52121 41455 52222 41557 3 0 0 0 -1 -1
L 51984 41318 52085 41418 3 0 0 0 -1 -1
L 52085 41418 52089 41369 3 0 0 0 -1 -1
L 52089 41369 52190 41470 3 0 0 0 -1 -1
T 52300 41300 8 10 0 1 0 0 1
refdes=LED?
T 52300 42100 5 10 0 0 0 0 1
description=LED
T 52300 41900 5 10 0 0 0 0 1
numslots=0
T 52300 41700 5 10 0 0 0 0 1
symversion=0.1
]
{
T 52300 41500 5 10 0 0 0 0 1
device=LED
T 51300 40900 5 10 1 1 0 0 1
refdes=LED2
T 52300 41700 5 10 0 0 0 0 1
symversion=0.1
}
C 51500 40300 1 0 0 EMBEDDEDled-1.sym
[
P 51500 40500 51700 40500 1 0 0
{
T 51650 40550 5 8 1 1 0 6 1
pinnumber=1
T 51650 40450 5 8 0 1 0 8 1
pinseq=1
T 51750 40500 9 8 0 1 0 0 1
pinlabel=A
T 51750 40500 5 8 0 1 0 2 1
pintype=pas
}
P 52400 40500 52200 40500 1 0 0
{
T 52250 40550 5 8 1 1 0 0 1
pinnumber=2
T 52250 40450 5 8 0 1 0 2 1
pinseq=2
T 52150 40500 9 8 0 1 0 6 1
pinlabel=K
T 52150 40500 5 8 0 1 0 8 1
pintype=pas
}
L 51900 40600 52000 40500 3 0 0 0 -1 -1
L 52000 40500 51900 40400 3 0 0 0 -1 -1
L 51900 40600 51900 40400 3 0 0 0 -1 -1
L 52000 40600 52000 40400 3 0 0 0 -1 -1
L 52000 40500 52200 40500 3 0 0 0 -1 -1
L 51900 40500 51700 40500 3 0 0 0 -1 -1
V 51950 40500 200 3 0 0 0 -1 -1 0 -1 -1 -1 -1 -1
T 52300 40900 5 10 0 0 0 0 1
device=LED
L 52016 40803 52117 40904 3 0 0 0 -1 -1
L 52117 40904 52121 40855 3 0 0 0 -1 -1
L 52121 40855 52222 40957 3 0 0 0 -1 -1
L 51984 40718 52085 40818 3 0 0 0 -1 -1
L 52085 40818 52089 40769 3 0 0 0 -1 -1
L 52089 40769 52190 40870 3 0 0 0 -1 -1
T 52300 40700 8 10 0 1 0 0 1
refdes=LED?
T 52300 41500 5 10 0 0 0 0 1
description=LED
T 52300 41300 5 10 0 0 0 0 1
numslots=0
T 52300 41100 5 10 0 0 0 0 1
symversion=0.1
]
{
T 52300 40900 5 10 0 0 0 0 1
device=LED
T 51300 40300 5 10 1 1 0 0 1
refdes=LED1
T 52300 41100 5 10 0 0 0 0 1
symversion=0.1
}
C 41800 52300 1 270 1 EMBEDDEDconnector6-2.sym
[
T 44700 53000 8 10 0 1 270 0 1
refdes=CONN?
T 44650 52600 5 10 0 0 270 6 1
device=CONNECTOR_6
T 44850 52600 5 10 0 0 270 6 1
footprint=SIP6N
T 45050 52600 5 10 0 0 270 6 1
author=Leon Kos
T 45250 52600 5 10 0 0 270 6 1
description=generic connector
T 45450 52600 5 10 0 0 270 6 1
numslots=0
P 44200 52300 44200 52500 1 0 0
{
T 44250 52500 5 8 0 1 270 0 1
pinnumber=1
T 44150 52500 5 8 0 1 270 2 1
pinseq=1
T 44200 52650 9 8 1 1 270 6 1
pinlabel=1
T 44200 52650 5 8 0 1 270 8 1
pintype=pas
}
V 44200 52550 50 6 0 0 0 -1 -1 0 -1 -1 -1 -1 -1
P 43800 52300 43800 52500 1 0 0
{
T 43850 52500 5 8 0 1 270 0 1
pinnumber=2
T 43750 52500 5 8 0 1 270 2 1
pinseq=2
T 43800 52650 9 8 1 1 270 6 1
pinlabel=2
T 43800 52650 5 8 0 1 270 8 1
pintype=pas
}
V 43800 52550 50 6 0 0 0 -1 -1 0 -1 -1 -1 -1 -1
P 43400 52300 43400 52500 1 0 0
{
T 43450 52500 5 8 0 1 270 0 1
pinnumber=3
T 43350 52500 5 8 0 1 270 2 1
pinseq=3
T 43400 52650 9 8 1 1 270 6 1
pinlabel=3
T 43400 52650 5 8 0 1 270 8 1
pintype=pas
}
V 43400 52550 50 6 0 0 0 -1 -1 0 -1 -1 -1 -1 -1
P 43000 52300 43000 52500 1 0 0
{
T 43050 52500 5 8 0 1 270 0 1
pinnumber=4
T 42950 52500 5 8 0 1 270 2 1
pinseq=4
T 43000 52650 9 8 1 1 270 6 1
pinlabel=4
T 43000 52650 5 8 0 1 270 8 1
pintype=pas
}
V 43000 52550 50 6 0 0 0 -1 -1 0 -1 -1 -1 -1 -1
P 42600 52300 42600 52500 1 0 0
{
T 42650 52500 5 8 0 1 270 0 1
pinnumber=5
T 42550 52500 5 8 0 1 270 2 1
pinseq=5
T 42600 52650 9 8 1 1 270 6 1
pinlabel=5
T 42600 52650 5 8 0 1 270 8 1
pintype=pas
}
V 42600 52550 50 6 0 0 0 -1 -1 0 -1 -1 -1 -1 -1
P 42200 52300 42200 52500 1 0 0
{
T 42250 52500 5 8 0 1 270 0 1
pinnumber=6
T 42150 52500 5 8 0 1 270 2 1
pinseq=6
T 42200 52650 9 8 1 1 270 6 1
pinlabel=6
T 42200 52650 5 8 0 1 270 8 1
pintype=pas
}
V 42200 52550 50 6 0 0 0 -1 -1 0 -1 -1 -1 -1 -1
B 41800 52600 2800 400 3 0 0 0 -1 -1 0 -1 -1 -1 -1 -1
]
{
T 44700 52800 5 10 1 1 180 8 1
refdes=CONN6
T 44650 52600 5 10 0 0 90 2 1
device=CONNECTOR_6
T 44850 52600 5 10 0 0 90 2 1
footprint=SIP6N
}
C 49800 41400 1 0 0 EMBEDDEDheader14-1.sym
[
P 50900 44400 51200 44400 1 0 1
{
T 51000 44450 5 8 1 1 0 0 1
pinnumber=2
T 51000 44450 5 8 0 0 0 0 1
pinseq=2
T 51000 44450 5 8 0 1 0 0 1
pinlabel=2
T 51000 44450 5 8 0 1 0 0 1
pintype=pas
}
P 49800 44000 50100 44000 1 0 0
{
T 49900 44050 5 8 1 1 0 0 1
pinnumber=3
T 49900 44050 5 8 0 0 0 0 1
pinseq=3
T 49900 44050 5 8 0 1 0 0 1
pinlabel=3
T 49900 44050 5 8 0 1 0 0 1
pintype=pas
}
P 50900 44000 51200 44000 1 0 1
{
T 51000 44050 5 8 1 1 0 0 1
pinnumber=4
T 51000 44050 5 8 0 0 0 0 1
pinseq=4
T 51000 44050 5 8 0 1 0 0 1
pinlabel=4
T 51000 44050 5 8 0 1 0 0 1
pintype=pas
}
P 49800 44400 50100 44400 1 0 0
{
T 49950 44450 5 8 1 1 0 0 1
pinnumber=1
T 49950 44450 5 8 0 0 0 0 1
pinseq=1
T 49950 44450 5 8 0 1 0 0 1
pinlabel=1
T 49950 44450 5 8 0 1 0 0 1
pintype=pas
}
P 49800 43600 50100 43600 1 0 0
{
T 49900 43650 5 8 1 1 0 0 1
pinnumber=5
T 49900 43650 5 8 0 0 0 0 1
pinseq=5
T 49900 43650 5 8 0 1 0 0 1
pinlabel=5
T 49900 43650 5 8 0 1 0 0 1
pintype=pas
}
L 50100 43800 50900 43800 3 0 0 0 -1 -1
L 50100 43400 50900 43400 3 0 0 0 -1 -1
L 50100 44200 50900 44200 3 0 0 0 -1 -1
L 50100 43000 50900 43000 3 0 0 0 -1 -1
T 49850 40350 5 10 0 1 0 0 1
device=HEADER16
P 50900 42800 51200 42800 1 0 1
{
T 51000 42850 5 8 1 1 0 0 1
pinnumber=10
T 51000 42850 5 8 0 0 0 0 1
pinseq=10
T 51000 42850 5 8 0 1 0 0 1
pinlabel=10
T 51000 42850 5 8 0 1 0 0 1
pintype=pas
}
P 49800 42800 50100 42800 1 0 0
{
T 49900 42850 5 8 1 1 0 0 1
pinnumber=9
T 49900 42850 5 8 0 0 0 0 1
pinseq=9
T 49900 42850 5 8 0 1 0 0 1
pinlabel=9
T 49900 42850 5 8 0 1 0 0 1
pintype=pas
}
P 50900 43200 51200 43200 1 0 1
{
T 51000 43250 5 8 1 1 0 0 1
pinnumber=8
T 51000 43250 5 8 0 0 0 0 1
pinseq=8
T 51000 43250 5 8 0 1 0 0 1
pinlabel=8
T 51000 43250 5 8 0 1 0 0 1
pintype=pas
}
P 49800 43200 50100 43200 1 0 0
{
T 49900 43250 5 8 1 1 0 0 1
pinnumber=7
T 49900 43250 5 8 0 0 0 0 1
pinseq=7
T 49900 43250 5 8 0 1 0 0 1
pinlabel=7
T 49900 43250 5 8 0 1 0 0 1
pintype=pas
}
P 50900 43600 51200 43600 1 0 1
{
T 51000 43650 5 8 1 1 0 0 1
pinnumber=6
T 51000 43650 5 8 0 0 0 0 1
pinseq=6
T 51000 43650 5 8 0 1 0 0 1
pinlabel=6
T 51000 43650 5 8 0 1 0 0 1
pintype=pas
}
T 50400 44700 8 10 0 1 0 0 1
refdes=J?
L 50100 42200 50900 42200 3 0 0 0 -1 -1
P 50900 42000 51200 42000 1 0 1
{
T 51000 42050 5 8 1 1 0 0 1
pinnumber=14
T 51000 42050 5 8 0 0 0 0 1
pinseq=14
T 51000 42050 5 8 0 1 0 0 1
pinlabel=14
T 51000 42050 5 8 0 1 0 0 1
pintype=pas
}
P 49800 42000 50100 42000 1 0 0
{
T 49900 42050 5 8 1 1 0 0 1
pinnumber=13
T 49900 42050 5 8 0 0 0 0 1
pinseq=13
T 49900 42050 5 8 0 1 0 0 1
pinlabel=13
T 49900 42050 5 8 0 1 0 0 1
pintype=pas
}
P 50900 42400 51200 42400 1 0 1
{
T 51000 42450 5 8 1 1 0 0 1
pinnumber=12
T 51000 42450 5 8 0 0 0 0 1
pinseq=12
T 51000 42450 5 8 0 1 0 0 1
pinlabel=12
T 51000 42450 5 8 0 1 0 0 1
pintype=pas
}
P 49800 42400 50100 42400 1 0 0
{
T 49900 42450 5 8 1 1 0 0 1
pinnumber=11
T 49900 42450 5 8 0 0 0 0 1
pinseq=11
T 49900 42450 5 8 0 1 0 0 1
pinlabel=11
T 49900 42450 5 8 0 1 0 0 1
pintype=pas
}
B 50100 41800 800 2800 3 0 0 0 -1 -1 0 -1 -1 -1 -1 -1
L 50100 42600 50900 42600 3 0 0 0 -1 -1
L 50500 44600 50500 41800 3 0 0 0 -1 -1
T 49800 40800 8 10 0 0 0 0 1
pins=14
T 49800 40600 8 10 0 0 0 0 1
class=IO
]
{
T 49850 40350 5 10 0 1 0 0 1
device=HEADER16
T 50400 44700 5 10 1 1 0 0 1
refdes=JP4
}
C 56000 44400 1 0 0 EMBEDDEDjumper-1.sym
[
P 56100 45400 56100 45200 1 0 0
{
T 56150 45250 5 8 1 1 0 0 1
pinnumber=2
T 56150 45250 5 8 0 0 0 0 1
pinseq=2
T 56150 45250 5 8 0 1 0 0 1
pinlabel=2
T 56150 45250 5 8 0 1 0 0 1
pintype=pas
}
P 56100 44400 56100 44600 1 0 0
{
T 56150 44450 5 8 1 1 0 0 1
pinnumber=1
T 56150 44450 5 8 0 0 0 0 1
pinseq=1
T 56150 44450 5 8 0 1 0 0 1
pinlabel=1
T 56150 44450 5 8 0 1 0 0 1
pintype=pas
}
V 56100 45100 50 3 0 0 0 -1 -1 0 -1 -1 -1 -1 -1
V 56100 44700 50 3 0 0 0 -1 -1 0 -1 -1 -1 -1 -1
B 56000 44600 200 600 3 0 0 0 -1 -1 0 -1 -1 -1 -1 -1
T 56300 44900 5 8 0 0 0 0 1
device=JUMPER
T 56300 44900 8 10 0 1 0 0 1
refdes=J?
]
{
T 56300 44900 5 8 0 0 0 0 1
device=JUMPER
T 56300 44900 5 10 1 1 0 0 1
refdes=JP2
}
C 40500 48700 1 0 0 EMBEDDEDheader6-1.sym
[
P 40500 50100 40800 50100 1 0 0
{
T 40600 50150 5 8 1 1 0 0 1
pinnumber=1
T 40600 50150 9 8 0 1 0 0 1
pinlabel=1
T 40600 50150 5 8 0 0 0 0 1
pinseq=1
T 40600 50150 5 8 0 0 0 0 1
pintype=pas
}
P 40500 49300 40800 49300 1 0 0
{
T 40600 49350 5 8 1 1 0 0 1
pinnumber=5
T 40600 49350 9 8 0 1 0 0 1
pinlabel=5
T 40600 49350 5 8 0 0 0 0 1
pinseq=5
T 40600 49350 5 8 0 0 0 0 1
pintype=pas
}
P 40500 49700 40800 49700 1 0 0
{
T 40600 49750 5 8 1 1 0 0 1
pinnumber=3
T 40600 49750 9 8 0 1 0 0 1
pinlabel=3
T 40600 49750 5 8 0 0 0 0 1
pinseq=3
T 40600 49750 5 8 0 0 0 0 1
pintype=pas
}
P 41600 49300 41900 49300 1 0 1
{
T 41750 49350 5 8 1 1 0 0 1
pinnumber=6
T 41750 49350 9 8 0 1 0 0 1
pinlabel=6
T 41750 49350 5 8 0 0 0 0 1
pinseq=6
T 41750 49350 5 8 0 0 0 0 1
pintype=pas
}
P 41600 49700 41900 49700 1 0 1
{
T 41750 49750 5 8 1 1 0 0 1
pinnumber=4
T 41750 49750 9 8 0 1 0 0 1
pinlabel=7
T 41750 49750 5 8 0 0 0 0 1
pinseq=7
T 41750 49750 5 8 0 0 0 0 1
pintype=pas
}
P 41600 50100 41900 50100 1 0 1
{
T 41750 50150 5 8 1 1 0 0 1
pinnumber=2
T 41750 50150 9 8 0 1 0 0 1
pinlabel=2
T 41750 50150 5 8 0 0 0 0 1
pinseq=2
T 41750 50150 5 8 0 0 0 0 1
pintype=pas
}
L 40800 49500 41600 49500 3 0 0 0 -1 -1
L 40800 49900 41600 49900 3 0 0 0 -1 -1
L 41200 50300 41200 49100 3 0 0 0 -1 -1
B 40800 49100 800 1200 3 0 0 0 -1 -1 0 -1 -1 -1 -1 -1
T 40500 50300 5 10 0 1 0 0 1
device=HEADER8
T 40500 50300 5 10 0 1 0 0 1
numslots=0
T 40500 50300 5 10 0 1 0 0 1
description=Header 8 pins
T 41100 50400 8 10 0 1 0 0 1
refdes=J?
]
{
T 40500 50300 5 10 0 1 0 0 1
device=HEADER8
T 41100 50400 5 10 1 1 0 0 1
refdes=JP1
}
C 56800 44600 1 0 0 EMBEDDEDconnector-LCD.sym
[
T 57500 51500 8 10 0 1 0 6 1
refdes=CONN?
T 57100 51450 5 10 0 0 0 0 1
device=CONNECTOR_16
T 57100 51650 5 10 0 0 0 0 1
footprint=SIP16N
T 57100 51850 5 10 0 0 0 0 1
author=Leon Kos
T 57100 52050 5 10 0 0 0 0 1
description=generic connector
T 57100 52250 5 10 0 0 0 0 1
numslots=0
V 57050 51000 50 6 0 0 0 -1 -1 0 -1 -1 -1 -1 -1
P 56800 50600 57000 50600 1 0 0
{
T 57000 50650 5 8 0 1 0 6 1
pinnumber=2
T 57000 50550 5 8 0 1 0 8 1
pinseq=2
T 57150 50600 9 8 1 1 0 0 1
pinlabel=2
T 57150 50600 5 8 0 1 0 2 1
pintype=pas
T 56800 50700 5 10 1 1 0 0 1
pinlabel=Vdd
}
V 57050 50600 50 6 0 0 0 -1 -1 0 -1 -1 -1 -1 -1
P 56800 50200 57000 50200 1 0 0
{
T 57000 50250 5 8 0 1 0 6 1
pinnumber=3
T 57000 50150 5 8 0 1 0 8 1
pinseq=3
T 57150 50200 9 8 1 1 0 0 1
pinlabel=3
T 57150 50200 5 8 0 1 0 2 1
pintype=pas
T 56800 50300 5 10 1 1 0 0 1
pinlabel=V0
}
V 57050 50200 50 6 0 0 0 -1 -1 0 -1 -1 -1 -1 -1
P 56800 49800 57000 49800 1 0 0
{
T 57000 49850 5 8 0 1 0 6 1
pinnumber=4
T 57000 49750 5 8 0 1 0 8 1
pinseq=4
T 57150 49800 9 8 1 1 0 0 1
pinlabel=4
T 57150 49800 5 8 0 1 0 2 1
pintype=pas
T 56800 49900 5 10 1 1 0 0 1
pinlabel=RS
}
V 57050 49800 50 6 0 0 0 -1 -1 0 -1 -1 -1 -1 -1
P 56800 49400 57000 49400 1 0 0
{
T 57000 49450 5 8 0 1 0 6 1
pinnumber=5
T 57000 49350 5 8 0 1 0 8 1
pinseq=5
T 57150 49400 9 8 1 1 0 0 1
pinlabel=5
T 57150 49400 5 8 0 1 0 2 1
pintype=pas
T 56800 49500 5 10 1 1 0 0 1
pinlabel=RW
}
V 57050 49400 50 6 0 0 0 -1 -1 0 -1 -1 -1 -1 -1
P 56800 49000 57000 49000 1 0 0
{
T 57000 49050 5 8 0 1 0 6 1
pinnumber=6
T 57000 48950 5 8 0 1 0 8 1
pinseq=6
T 57150 49000 9 8 1 1 0 0 1
pinlabel=6
T 57150 49000 5 8 0 1 0 2 1
pintype=pas
T 56800 49100 5 10 1 1 0 0 1
pinlabel=E
}
V 57050 49000 50 6 0 0 0 -1 -1 0 -1 -1 -1 -1 -1
P 56800 48600 57000 48600 1 0 0
{
T 57000 48650 5 8 0 1 0 6 1
pinnumber=7
T 57000 48550 5 8 0 1 0 8 1
pinseq=7
T 57150 48600 9 8 1 1 0 0 1
pinlabel=7
T 57150 48600 5 8 0 1 0 2 1
pintype=pas
T 56800 48700 5 10 1 1 0 0 1
pinlabel=DB0
}
V 57050 48600 50 6 0 0 0 -1 -1 0 -1 -1 -1 -1 -1
P 56800 48200 57000 48200 1 0 0
{
T 57000 48250 5 8 0 1 0 6 1
pinnumber=8
T 57000 48150 5 8 0 1 0 8 1
pinseq=8
T 57150 48200 9 8 1 1 0 0 1
pinlabel=8
T 57150 48200 5 8 0 1 0 2 1
pintype=pas
T 56800 48300 5 10 1 1 0 0 1
pinlabel=DB1
}
V 57050 48200 50 6 0 0 0 -1 -1 0 -1 -1 -1 -1 -1
P 56800 47800 57000 47800 1 0 0
{
T 57000 47850 5 8 0 1 0 6 1
pinnumber=9
T 57000 47750 5 8 0 1 0 8 1
pinseq=9
T 57150 47800 9 8 1 1 0 0 1
pinlabel=9
T 57150 47800 5 8 0 1 0 2 1
pintype=pas
T 56800 47900 5 10 1 1 0 0 1
pinlabel=DB2
}
V 57050 47800 50 6 0 0 0 -1 -1 0 -1 -1 -1 -1 -1
P 56800 47400 57000 47400 1 0 0
{
T 57000 47450 5 8 0 1 0 6 1
pinnumber=10
T 57000 47350 5 8 0 1 0 8 1
pinseq=10
T 57150 47400 9 8 1 1 0 0 1
pinlabel=10
T 57150 47400 5 8 0 1 0 2 1
pintype=pas
T 56800 47500 5 10 1 1 0 0 1
pinlabel=DB3
}
V 57050 47400 50 6 0 0 0 -1 -1 0 -1 -1 -1 -1 -1
P 56800 47000 57000 47000 1 0 0
{
T 57000 47050 5 8 0 1 0 6 1
pinnumber=11
T 57000 46950 5 8 0 1 0 8 1
pinseq=11
T 57150 47000 9 8 1 1 0 0 1
pinlabel=11
T 57150 47000 5 8 0 1 0 2 1
pintype=pas
T 56800 47100 5 10 1 1 0 0 1
pinlabel=DB4
}
V 57050 47000 50 6 0 0 0 -1 -1 0 -1 -1 -1 -1 -1
P 56800 46600 57000 46600 1 0 0
{
T 57000 46650 5 8 0 1 0 6 1
pinnumber=12
T 57000 46550 5 8 0 1 0 8 1
pinseq=12
T 57150 46600 9 8 1 1 0 0 1
pinlabel=12
T 57150 46600 5 8 0 1 0 2 1
pintype=pas
T 56800 46700 5 10 1 1 0 0 1
pinlabel=DB5
}
V 57050 46600 50 6 0 0 0 -1 -1 0 -1 -1 -1 -1 -1
P 56800 46200 57000 46200 1 0 0
{
T 57000 46250 5 8 0 1 0 6 1
pinnumber=13
T 57000 46150 5 8 0 1 0 8 1
pinseq=13
T 57150 46200 9 8 1 1 0 0 1
pinlabel=13
T 57150 46200 5 8 0 1 0 2 1
pintype=pas
T 56800 46300 5 10 1 1 0 0 1
pinlabel=DB6
}
V 57050 46200 50 6 0 0 0 -1 -1 0 -1 -1 -1 -1 -1
P 56800 45800 57000 45800 1 0 0
{
T 57000 45850 5 8 0 1 0 6 1
pinnumber=14
T 57000 45750 5 8 0 1 0 8 1
pinseq=14
T 57150 45800 9 8 1 1 0 0 1
pinlabel=14
T 57150 45800 5 8 0 1 0 2 1
pintype=pas
T 56800 45900 5 10 1 1 0 0 1
pinlabel=DB7
}
V 57050 45800 50 6 0 0 0 -1 -1 0 -1 -1 -1 -1 -1
P 56800 45400 57000 45400 1 0 0
{
T 57000 45450 5 8 0 1 0 6 1
pinnumber=15
T 57000 45350 5 8 0 1 0 8 1
pinseq=15
T 57150 45400 9 8 1 1 0 0 1
pinlabel=15
T 57150 45400 5 8 0 1 0 2 1
pintype=pas
T 56800 45500 5 10 1 1 0 0 1
pinlabel=L+
}
V 57050 45400 50 6 0 0 0 -1 -1 0 -1 -1 -1 -1 -1
P 56800 45000 57000 45000 1 0 0
{
T 57000 45050 5 8 0 1 0 6 1
pinnumber=16
T 57000 44950 5 8 0 1 0 8 1
pinseq=16
T 57150 45000 9 8 1 1 0 0 1
pinlabel=16
T 57150 45000 5 8 0 1 0 2 1
pintype=pas
T 56800 45100 5 10 1 1 0 0 1
pinlabel=L-
}
V 57050 45000 50 6 0 0 0 -1 -1 0 -1 -1 -1 -1 -1
B 57100 44600 400 6800 3 0 0 0 -1 -1 0 -1 -1 -1 -1 -1
P 56800 51000 57000 51000 1 0 0
{
T 56800 51000 5 10 0 0 180 0 1
pintype=unknown
T 56755 51095 5 10 1 1 0 0 1
pinlabel=Vss
T 57205 50945 3 10 1 1 0 6 1
pinnumber=1
T 56800 51000 5 10 0 0 180 0 1
pinseq=0
}
]
{
T 57500 51500 5 10 1 1 0 6 1
refdes=LCD1
T 57100 51450 5 10 0 0 0 0 1
device=CONNECTOR_16
T 57100 51650 5 10 0 0 0 0 1
footprint=SIP16N
}
C 47100 40400 1 270 0 EMBEDDEDUSBgeneric.sym
[
P 48500 40400 48500 40100 1 0 0
{
T 48550 40300 5 8 1 1 270 0 1
pinnumber=1
T 48550 40300 9 8 0 1 270 0 1
pinlabel=1
T 48550 40300 5 8 0 0 270 0 1
pinseq=1
T 48550 40300 5 8 0 0 270 0 1
pintype=pas
}
P 47100 39900 47400 39900 1 0 0
{
T 47305 39950 5 8 1 1 0 6 1
pinnumber=5
T 47455 39900 9 8 0 1 0 0 1
pinlabel=5
T 47200 39950 5 8 0 0 0 0 1
pinseq=5
T 47200 39950 5 8 0 0 0 0 1
pintype=pas
}
P 47900 40400 47900 40100 1 0 0
{
T 47950 40300 5 8 1 1 270 0 1
pinnumber=3
T 47950 40300 9 8 0 1 270 0 1
pinlabel=3
T 47950 40300 5 8 0 0 270 0 1
pinseq=3
T 47950 40300 5 8 0 0 270 0 1
pintype=pas
}
P 47400 39500 47100 39500 1 0 1
{
T 47305 39550 5 8 1 1 0 6 1
pinnumber=6
T 47455 39500 9 8 0 1 0 0 1
pinlabel=6
T 47250 39450 5 8 0 0 180 0 1
pinseq=6
T 47250 39450 5 8 0 0 180 0 1
pintype=pas
}
P 47600 40100 47600 40400 1 0 1
{
T 47645 40195 5 8 1 1 270 6 1
pinnumber=4
T 47595 40045 9 8 0 1 270 0 1
pinlabel=7
T 47550 40250 5 8 0 0 90 0 1
pinseq=7
T 47550 40250 5 8 0 0 90 0 1
pintype=pas
}
P 48200 40100 48200 40400 1 0 1
{
T 48245 40195 5 8 1 1 270 6 1
pinnumber=2
T 48195 40045 9 8 0 1 270 0 1
pinlabel=2
T 48150 40250 5 8 0 0 90 0 1
pinseq=2
T 48150 40250 5 8 0 0 90 0 1
pintype=pas
}
B 47400 39300 1300 800 3 0 0 0 -1 -1 0 -1 -1 -1 -1 -1
T 48700 40400 5 10 0 1 270 0 1
device=USB
T 48700 40400 5 10 0 1 270 0 1
numslots=0
T 48700 40400 5 10 0 1 270 0 1
description=Generic USB Connector
T 48800 39800 8 10 0 1 270 0 1
refdes=J?
T 48500 40100 9 8 1 0 270 0 1
Vbus
T 48200 40100 9 8 1 0 270 0 1
D+
T 47900 40100 9 8 1 0 270 0 1
D-
T 47600 40100 9 8 1 0 270 0 1
Gnd
T 47400 40100 9 8 1 0 270 0 1
MT1
T 47400 39600 9 8 1 0 270 0 1
MT2
]
{
T 48700 40400 5 10 0 1 270 0 1
device=USB
T 46700 39600 5 10 1 1 0 0 1
refdes=J1
}
C 43600 39500 1 90 0 EMBEDDEDpwrjack-1.sym
[
T 43100 39600 5 10 0 0 90 0 1
device=PWRJACK
P 43500 40100 43500 40400 1 0 1
{
T 43550 39550 5 8 1 1 90 0 1
pinnumber=1
T 43550 39550 5 8 0 0 90 0 1
pinseq=1
T 43550 39550 5 8 0 1 90 0 1
pinlabel=1
T 43550 39550 5 8 0 1 90 0 1
pintype=pas
}
P 43300 40100 43300 40400 1 0 1
{
T 43350 39550 5 8 1 1 90 0 1
pinnumber=2
T 43350 39550 5 8 0 0 90 0 1
pinseq=2
T 43350 39550 5 8 0 1 90 0 1
pinlabel=2
T 43350 39550 5 8 0 1 90 0 1
pintype=pas
}
L 43500 39900 43400 39800 3 0 0 0 -1 -1
L 43400 39800 43500 39700 3 0 0 0 -1 -1
L 43500 39900 43500 40100 3 0 0 0 -1 -1
L 43300 39700 43300 40100 3 0 0 0 -1 -1
B 43200 39500 400 600 3 0 0 0 -1 -1 0 -1 -1 -1 -1 -1
T 43100 39500 8 10 0 1 90 0 1
refdes=CONN?
]
{
T 43100 39600 5 10 0 0 90 0 1
device=PWRJACK
T 43900 39800 5 10 1 1 180 0 1
refdes=J2
}
C 50700 45900 1 0 0 EMBEDDEDheader12-1.sym
[
P 51800 48900 52100 48900 1 0 1
{
T 51900 48950 5 8 1 1 0 0 1
pinnumber=2
T 51900 48950 5 8 0 0 0 0 1
pinseq=2
T 51900 48950 5 8 0 1 0 0 1
pinlabel=2
T 51900 48950 5 8 0 1 0 0 1
pintype=pas
}
P 50700 48500 51000 48500 1 0 0
{
T 50800 48550 5 8 1 1 0 0 1
pinnumber=3
T 50800 48550 5 8 0 0 0 0 1
pinseq=3
T 50800 48550 5 8 0 1 0 0 1
pinlabel=3
T 50800 48550 5 8 0 1 0 0 1
pintype=pas
}
P 51800 48500 52100 48500 1 0 1
{
T 51900 48550 5 8 1 1 0 0 1
pinnumber=4
T 51900 48550 5 8 0 0 0 0 1
pinseq=4
T 51900 48550 5 8 0 1 0 0 1
pinlabel=4
T 51900 48550 5 8 0 1 0 0 1
pintype=pas
}
P 50700 48900 51000 48900 1 0 0
{
T 50850 48950 5 8 1 1 0 0 1
pinnumber=1
T 50850 48950 5 8 0 0 0 0 1
pinseq=1
T 50850 48950 5 8 0 1 0 0 1
pinlabel=1
T 50850 48950 5 8 0 1 0 0 1
pintype=pas
}
P 50700 48100 51000 48100 1 0 0
{
T 50800 48150 5 8 1 1 0 0 1
pinnumber=5
T 50800 48150 5 8 0 0 0 0 1
pinseq=5
T 50800 48150 5 8 0 1 0 0 1
pinlabel=5
T 50800 48150 5 8 0 1 0 0 1
pintype=pas
}
L 51000 48300 51800 48300 3 0 0 0 -1 -1
L 51000 47900 51800 47900 3 0 0 0 -1 -1
L 51000 48700 51800 48700 3 0 0 0 -1 -1
L 51000 47500 51800 47500 3 0 0 0 -1 -1
T 50750 44850 5 10 0 1 0 0 1
device=HEADER12
P 51800 47300 52100 47300 1 0 1
{
T 51900 47350 5 8 1 1 0 0 1
pinnumber=10
T 51900 47350 5 8 0 0 0 0 1
pinseq=10
T 51900 47350 5 8 0 1 0 0 1
pinlabel=10
T 51900 47350 5 8 0 1 0 0 1
pintype=pas
}
P 50700 47300 51000 47300 1 0 0
{
T 50800 47350 5 8 1 1 0 0 1
pinnumber=9
T 50800 47350 5 8 0 0 0 0 1
pinseq=9
T 50800 47350 5 8 0 1 0 0 1
pinlabel=9
T 50800 47350 5 8 0 1 0 0 1
pintype=pas
}
P 51800 47700 52100 47700 1 0 1
{
T 51900 47750 5 8 1 1 0 0 1
pinnumber=8
T 51900 47750 5 8 0 0 0 0 1
pinseq=8
T 51900 47750 5 8 0 1 0 0 1
pinlabel=8
T 51900 47750 5 8 0 1 0 0 1
pintype=pas
}
P 50700 47700 51000 47700 1 0 0
{
T 50800 47750 5 8 1 1 0 0 1
pinnumber=7
T 50800 47750 5 8 0 0 0 0 1
pinseq=7
T 50800 47750 5 8 0 1 0 0 1
pinlabel=7
T 50800 47750 5 8 0 1 0 0 1
pintype=pas
}
P 51800 48100 52100 48100 1 0 1
{
T 51900 48150 5 8 1 1 0 0 1
pinnumber=6
T 51900 48150 5 8 0 0 0 0 1
pinseq=6
T 51900 48150 5 8 0 1 0 0 1
pinlabel=6
T 51900 48150 5 8 0 1 0 0 1
pintype=pas
}
T 51300 49200 8 10 0 1 0 0 1
refdes=J?
P 51800 46900 52100 46900 1 0 1
{
T 51900 46950 5 8 1 1 0 0 1
pinnumber=12
T 51900 46950 5 8 0 0 0 0 1
pinseq=12
T 51900 46950 5 8 0 1 0 0 1
pinlabel=12
T 51900 46950 5 8 0 1 0 0 1
pintype=pas
}
P 50700 46900 51000 46900 1 0 0
{
T 50800 46950 5 8 1 1 0 0 1
pinnumber=11
T 50800 46950 5 8 0 0 0 0 1
pinseq=11
T 50800 46950 5 8 0 1 0 0 1
pinlabel=11
T 50800 46950 5 8 0 1 0 0 1
pintype=pas
}
B 51000 46700 800 2400 3 0 0 0 -1 -1 0 -1 -1 -1 -1 -1
L 51000 47100 51800 47100 3 0 0 0 -1 -1
L 51400 49100 51400 46700 3 0 0 0 -1 -1
T 50700 45300 8 10 0 0 0 0 1
pins=12
T 50700 45100 8 10 0 0 0 0 1
class=IO
]
{
T 50750 44850 5 10 0 1 0 0 1
device=HEADER12
T 51300 49200 5 10 1 1 0 0 1
refdes=JP3
}
N 48300 46700 49400 46700 4
N 49400 46700 49400 46900 4
N 48100 47100 49400 47100 4
N 49400 47100 49400 47300 4
N 47900 47500 49400 47500 4
N 49400 47500 49400 47700 4
N 47700 47900 49400 47900 4
N 49400 47900 49400 48100 4
N 47500 48300 49400 48300 4
N 49400 48300 49400 48500 4
N 47300 48700 49400 48700 4
N 49400 48700 49400 48900 4
N 47100 49100 49400 49100 4
N 49400 49100 49400 49300 4
N 46900 49500 49400 49500 4
N 49400 49500 49400 49700 4
N 49400 49900 49400 50100 4
N 47800 50300 49400 50300 4
N 49400 50300 49400 50500 4
N 49400 46900 50700 46900 4
N 49400 47300 50700 47300 4
N 49400 47700 50700 47700 4
N 49400 48100 50700 48100 4
N 49400 48500 50700 48500 4
N 49400 48900 50700 48900 4
N 45600 47700 47300 47700 4
N 47300 47700 47300 48700 4
N 45600 47300 47500 47300 4
N 47500 47300 47500 48300 4
N 45600 46900 47700 46900 4
N 47700 46900 47700 47900 4
N 45600 46500 47900 46500 4
N 47900 46500 47900 47500 4
N 45600 46100 48100 46100 4
N 48100 46100 48100 47100 4
N 45600 45700 48300 45700 4
N 48300 45700 48300 46700 4
N 45600 48100 47100 48100 4
N 45600 48500 46900 48500 4
N 46900 48500 46900 49500 4
N 46000 49500 46000 48100 4
N 46500 44900 46500 48100 4
N 52100 47700 56000 47700 4
N 56000 47700 56000 47000 4
N 56000 47000 56800 47000 4
N 52100 48100 55800 48100 4
N 55800 46600 55800 48100 4
N 55800 46600 56800 46600 4
N 52100 48500 55600 48500 4
N 55600 46200 55600 48500 4
N 55600 46200 56800 46200 4
N 52100 48900 55400 48900 4
N 55400 45800 55400 48900 4
N 55400 45800 56800 45800 4
N 52100 47300 56200 47300 4
N 56200 47300 56200 49000 4
N 56200 49000 56800 49000 4
N 52100 46900 55200 46900 4
N 55200 46900 55200 49800 4
N 55200 49800 56800 49800 4
N 55100 50200 56800 50200 4
N 51100 51000 57700 51000 4
N 51100 49300 51100 51000 4
N 51100 49300 49400 49300 4
N 54600 50700 54600 51000 4
N 56800 49400 53400 49400 4
N 53400 49400 53400 50100 4
N 49400 49700 50900 49700 4
N 50900 49700 50900 51200 4
N 50900 51200 56200 51200 4
N 56200 50600 56200 51200 4
N 56200 50600 57900 50600 4
N 56800 45000 58400 45000 4
N 57700 45000 57700 51000 4
N 56100 45400 56800 45400 4
N 57900 50600 57900 43500 4
N 55400 43500 58500 43500 4
N 45600 44900 46500 44900 4
N 44200 52300 44200 49400 4
N 42500 49400 44200 49400 4
N 42500 49400 42500 48500 4
N 43000 52300 43000 49700 4
N 43000 49700 41900 49700 4
N 42600 52300 42600 50600 4
N 42600 50600 39700 50600 4
N 39700 50600 39700 49700 4
N 39700 49700 40500 49700 4
N 47100 48100 47100 51400 4
N 43800 52300 43800 51400 4
N 39100 51400 47100 51400 4
N 47600 49500 47600 50500 4
N 43400 50500 47600 50500 4
N 43400 50500 43400 52300 4
N 44700 50800 44700 51400 4
N 45600 50800 45600 50500 4
N 45100 50000 47100 50000 4
N 46300 51700 46300 50500 4
N 45300 51700 44200 51700 4
N 41200 51700 43800 51700 4
N 41900 49300 41900 46100 4
N 40500 46100 42500 46100 4
N 40300 43200 40300 49300 4
N 40300 46500 42500 46500 4
N 42500 47299 39900 47299 4
N 39900 47299 39900 50100 4
N 39900 50100 40500 50100 4
N 40100 46900 42500 46900 4
N 42100 46900 42100 50100 4
N 42100 50100 41900 50100 4
N 43400 50800 39300 50800 4
N 39300 47500 39300 51700 4
N 39300 47500 38900 47500 4
N 38900 47500 38900 47100 4
N 38900 47900 39100 47900 4
N 39100 45500 39100 51400 4
N 38900 48700 41600 48700 4
N 41600 48500 41600 48700 4
N 41600 48500 42500 48500 4
N 42500 48100 39500 48100 4
N 39500 44800 39500 48100 4
N 39500 44800 38900 44800 4
N 42500 47700 39700 47700 4
N 39700 44400 39700 47700 4
N 39700 44400 38900 44400 4
N 40100 46900 40100 43600 4
N 40100 43600 38900 43600 4
N 38900 43200 40300 43200 4
N 40300 49300 40500 49300 4
N 40500 42800 40500 46100 4
N 40500 42800 38900 42800 4
N 38900 44000 39900 44000 4
N 39900 44000 39900 47300 4
N 42500 45700 39300 45700 4
N 39300 45700 39300 47100 4
N 39300 47100 38900 47100 4
N 39100 45500 40700 45500 4
N 40700 45500 40700 43700 4
N 40700 43700 42500 43700 4
N 42500 44500 40900 44500 4
N 40900 42400 40900 44500 4
N 38100 42400 40900 42400 4
N 42500 44100 41100 44100 4
N 41100 44100 41100 42000 4
N 38000 42000 41100 42000 4
N 41300 44800 41300 43700 4
N 51200 42800 51500 42800 4
N 51500 42800 51500 41700 4
N 51500 41100 51400 41100 4
N 51400 41100 51400 42400 4
N 51400 42400 51200 42400 4
N 51500 40500 51300 40500 4
N 51300 40500 51300 42000 4
N 51200 42000 51300 42000 4
C 55100 43600 1 90 0 EMBEDDEDresistor-1.sym
[
L 54900 44200 55100 44100 3 0 0 0 -1 -1
L 55100 44100 54900 44000 3 0 0 0 -1 -1
L 54900 44000 55100 43900 3 0 0 0 -1 -1
L 55100 43900 54900 43800 3 0 0 0 -1 -1
T 54700 43900 5 10 0 0 90 0 1
device=RESISTOR
L 54900 44200 55100 44300 3 0 0 0 -1 -1
L 55100 44300 55000 44350 3 0 0 0 -1 -1
P 55000 44500 55000 44350 1 0 0
{
T 54950 44400 5 8 0 1 90 0 1
pinnumber=2
T 54950 44400 5 8 0 0 90 0 1
pinseq=2
T 54950 44400 5 8 0 1 90 0 1
pinlabel=2
T 54950 44400 5 8 0 1 90 0 1
pintype=pas
}
P 55000 43600 55000 43752 1 0 0
{
T 54950 43700 5 8 0 1 90 0 1
pinnumber=1
T 54950 43700 5 8 0 0 90 0 1
pinseq=1
T 54950 43700 5 8 0 1 90 0 1
pinlabel=1
T 54950 43700 5 8 0 1 90 0 1
pintype=pas
}
L 54900 43801 55000 43750 3 0 0 0 -1 -1
T 54800 43800 8 10 0 1 90 0 1
refdes=R?
T 55100 43600 8 10 0 1 90 0 1
pins=2
T 55100 43600 8 10 0 1 90 0 1
class=DISCRETE
]
{
T 54700 43900 5 10 0 0 90 0 1
device=RESISTOR
T 54800 44000 5 10 0 1 180 0 1
refdes=R?
T 55100 43600 5 10 1 1 0 0 1
netname=3K32
}
N 55400 43500 55400 44500 4
N 55400 44500 53500 44500 4
N 55000 43600 55000 43100 4
N 51300 43100 57900 43100 4
N 54500 43600 54500 43200 4
N 51500 43200 55500 43200 4
N 51500 43200 51500 43600 4
N 51500 43600 51200 43600 4
N 51200 44000 51700 44000 4
N 51700 44000 51700 43300 4
N 51700 43300 54000 43300 4
N 54000 42100 54000 43600 4
N 51200 44400 52000 44400 4
N 52000 44400 52000 43400 4
N 52000 43400 53900 43400 4
N 53500 43400 53500 43600 4
N 57900 42000 57900 43100 4
N 56500 42000 57900 42000 4
N 56500 42000 56500 41500 4
N 55500 43200 55500 42500 4
N 54000 42100 55500 42100 4
N 55500 42100 55500 40500 4
N 53900 41500 53900 43400 4
N 53900 41500 54500 41500 4
N 58400 39900 58400 45000 4
N 58400 40500 57400 40500 4
N 53300 41700 53300 39900 4
N 49500 39900 58400 39900 4
N 57400 42500 58400 42500 4
N 56400 41500 56400 41000 4
N 56400 41000 58400 41000 4
N 49800 41400 41500 41400 4
N 41500 41400 41500 44500 4
N 45600 42400 49800 42400 4
N 45600 42400 45600 43300 4
N 45600 43700 45800 43700 4
N 45800 43700 45800 42800 4
N 45800 42800 49800 42800 4
N 42500 43300 41900 43300 4
N 41900 43300 41900 41800 4
N 41900 41800 46000 41800 4
N 46000 41800 46000 43200 4
N 46000 43200 49800 43200 4
N 45600 44100 46000 44100 4
N 46000 43600 46000 44100 4
N 46000 43600 49800 43600 4
N 45600 44500 46200 44500 4
N 46200 44000 46200 44500 4
N 46200 44000 49800 44000 4
N 47200 44400 49800 44400 4
N 47200 41600 47200 44400 4
N 41700 41600 47200 41600 4
N 41700 41600 41700 44100 4
N 49800 41400 49800 42000 4
N 48500 44800 47000 44800 4
N 47000 44800 47000 42000 4
N 47000 42000 42100 42000 4
N 42100 42000 42100 44900 4
N 42100 44900 42500 44900 4
N 42500 45300 42300 45300 4
N 42300 45300 42300 42200 4
N 42300 42200 47700 42200 4
N 47700 42200 47700 45200 4
N 47700 45200 48500 45200 4
N 39300 51700 39400 51700 4
N 51200 43200 51300 43200 4
N 51300 43200 51300 43100 4
N 49500 39900 49500 40900 4
N 49500 40900 43300 40900 4
N 43300 40900 43300 40400 4
N 47600 40400 47600 40900 4
N 47100 39500 47100 40900 4
N 43500 40400 45500 40400 4
N 58500 43500 58500 39700 4
N 58500 39700 49200 39700 4
N 49200 39700 49200 40700 4
N 49200 40700 45500 40700 4
N 45500 40700 45500 40400 4
N 48500 40400 48500 40700 4
N 38100 42400 38100 49500 4
N 38000 49100 38000 42000 4
C 37100 37400 0 0 0 EMBEDDEDtitle-C.sym
[
B 37100 37400 22000 17000 15 0 0 0 -1 -1 0 -1 -1 -1 -1 -1
T 51500 38900 5 10 0 0 0 0 1
graphical=1
L 55000 38000 55000 37400 15 0 0 0 -1 -1
T 51600 37800 15 8 1 0 0 0 1
FILE:
T 55100 37800 15 8 1 0 0 0 1
REVISION:
T 55100 37500 15 8 1 0 0 0 1
DRAWN BY: 
T 51600 37500 15 8 1 0 0 0 1
PAGE
T 53300 37500 15 8 1 0 0 0 1
OF
T 51600 38100 15 8 1 0 0 0 1
TITLE
B 51500 37400 7600 1400 15 0 0 0 -1 -1 0 -1 -1 -1 -1 -1
L 51500 38000 59100 38000 15 0 0 0 -1 -1
]
T 52100 37700 9 10 1 0 0 0 1
dsPIC-EL-GM1/dsPIC-EL-GM.sym
T 52600 37400 9 10 1 0 0 0 1
1
T 53900 37400 9 10 1 0 0 0 1
1
T 56700 37700 9 10 1 0 0 0 1
3
T 56300 37400 9 10 1 0 0 0 1
WB8RCR
T 52400 38200 9 16 1 0 0 0 1
dsPIC-EL-GM
N 38900 49500 38100 49500 4
N 38900 49100 38000 49100 4
N 47800 42400 47800 50300 4
C 38200 46300 1 0 0 EMBEDDEDArduinoConn1.sym
[
T 38200 50000 8 10 0 1 0 0 1
refdes=CONN?
T 37800 49950 5 10 0 0 0 0 1
device=CONNECTOR_8
T 37800 50150 5 10 0 0 0 0 1
footprint=SIP8N
T 37800 50350 5 10 0 0 0 0 1
author=Leon Kos
T 37800 50550 5 10 0 0 0 0 1
description=generic connector
T 37800 50750 5 10 0 0 0 0 1
numslots=0
P 38900 49500 38700 49500 1 0 0
{
T 38795 49545 5 8 0 1 0 0 1
pinnumber=1
T 38700 49450 5 8 0 1 0 2 1
pinseq=1
T 38545 49495 9 8 1 1 0 6 1
pinlabel=A6
T 38550 49500 5 8 0 1 0 8 1
pintype=pas
}
V 38650 49500 50 6 0 0 0 -1 -1 0 -1 -1 -1 -1 -1
P 38900 49100 38700 49100 1 0 0
{
T 38795 49145 5 8 0 1 0 0 1
pinnumber=2
T 38700 49050 5 8 0 1 0 2 1
pinseq=2
T 38545 49095 9 8 1 1 0 6 1
pinlabel=A7
T 38550 49100 5 8 0 1 0 8 1
pintype=pas
}
V 38650 49100 50 6 0 0 0 -1 -1 0 -1 -1 -1 -1 -1
P 38900 48700 38700 48700 1 0 0
{
T 38795 48745 5 8 0 1 0 0 1
pinnumber=3
T 38700 48650 5 8 0 1 0 2 1
pinseq=3
T 38545 48695 9 8 1 1 0 6 1
pinlabel=Reset
T 38550 48700 5 8 0 1 0 8 1
pintype=pas
}
V 38650 48700 50 6 0 0 0 -1 -1 0 -1 -1 -1 -1 -1
P 38900 48300 38700 48300 1 0 0
{
T 38795 48345 5 8 0 1 0 0 1
pinnumber=4
T 38700 48250 5 8 0 1 0 2 1
pinseq=4
T 38545 48295 9 8 1 1 0 6 1
pinlabel=+3.3
T 38550 48300 5 8 0 1 0 8 1
pintype=pas
}
V 38650 48300 50 6 0 0 0 -1 -1 0 -1 -1 -1 -1 -1
P 38900 47900 38700 47900 1 0 0
{
T 38795 47945 5 8 0 1 0 0 1
pinnumber=5
T 38700 47850 5 8 0 1 0 2 1
pinseq=5
T 38545 47895 9 8 1 1 0 6 1
pinlabel=+5
T 38550 47900 5 8 0 1 0 8 1
pintype=pas
}
V 38650 47900 50 6 0 0 0 -1 -1 0 -1 -1 -1 -1 -1
P 38900 47500 38700 47500 1 0 0
{
T 38795 47545 5 8 0 1 0 0 1
pinnumber=6
T 38700 47450 5 8 0 1 0 2 1
pinseq=6
T 38545 47495 9 8 1 1 0 6 1
pinlabel=Gnd
T 38550 47500 5 8 0 1 0 8 1
pintype=pas
}
V 38650 47500 50 6 0 0 0 -1 -1 0 -1 -1 -1 -1 -1
P 38900 47100 38700 47100 1 0 0
{
T 38795 47145 5 8 0 1 0 0 1
pinnumber=7
T 38700 47050 5 8 0 1 0 2 1
pinseq=7
T 38545 47095 9 8 1 1 0 6 1
pinlabel=Gnd
T 38550 47100 5 8 0 1 0 8 1
pintype=pas
}
V 38650 47100 50 6 0 0 0 -1 -1 0 -1 -1 -1 -1 -1
P 38900 46700 38700 46700 1 0 0
{
T 38795 46745 5 8 0 1 0 0 1
pinnumber=8
T 38700 46650 5 8 0 1 0 2 1
pinseq=8
T 38545 46695 9 8 1 1 0 6 1
pinlabel=Vin
T 38550 46700 5 8 0 1 0 8 1
pintype=pas
}
V 38650 46700 50 6 0 0 0 -1 -1 0 -1 -1 -1 -1 -1
B 38200 46300 400 3600 3 0 0 0 -1 -1 0 -1 -1 -1 -1 -1
]
{
T 38200 50000 5 10 1 1 0 0 1
refdes=CONN1
T 37800 49950 5 10 0 0 0 0 1
device=CONNECTOR_8
T 37800 50150 5 10 0 0 0 0 1
footprint=SIP8N
}
C 38300 41600 1 0 0 EMBEDDEDArduinoConn2.sym
[
T 38200 45300 8 10 0 1 0 0 1
refdes=CONN?
T 38600 45250 5 10 0 0 0 0 1
device=ArduinoConn2
T 38600 45450 5 10 0 0 0 0 1
footprint=SIP8N
T 38600 45650 5 10 0 0 0 0 1
author=Leon Kos
T 38600 45850 5 10 0 0 0 0 1
description=generic connector
T 38600 46050 5 10 0 0 0 0 1
numslots=0
P 38900 44800 38700 44800 1 0 0
{
T 38795 44845 5 8 0 1 0 0 1
pinnumber=1
T 38700 44750 5 8 0 1 0 2 1
pinseq=1
T 38545 44795 9 8 1 1 0 6 1
pinlabel=A0
T 38550 44800 5 8 0 1 0 8 1
pintype=pas
}
V 38650 44800 50 6 0 0 0 -1 -1 0 -1 -1 -1 -1 -1
P 38900 44400 38700 44400 1 0 0
{
T 38795 44445 5 8 0 1 0 0 1
pinnumber=2
T 38700 44350 5 8 0 1 0 2 1
pinseq=2
T 38545 44395 9 8 1 1 0 6 1
pinlabel=A1
T 38550 44400 5 8 0 1 0 8 1
pintype=pas
}
V 38650 44400 50 6 0 0 0 -1 -1 0 -1 -1 -1 -1 -1
P 38900 44000 38700 44000 1 0 0
{
T 38795 44045 5 8 0 1 0 0 1
pinnumber=3
T 38700 43950 5 8 0 1 0 2 1
pinseq=3
T 38545 43995 9 8 1 1 0 6 1
pinlabel=A2
T 38550 44000 5 8 0 1 0 8 1
pintype=pas
}
V 38650 44000 50 6 0 0 0 -1 -1 0 -1 -1 -1 -1 -1
P 38900 43600 38700 43600 1 0 0
{
T 38795 43645 5 8 0 1 0 0 1
pinnumber=4
T 38700 43550 5 8 0 1 0 2 1
pinseq=4
T 38545 43595 9 8 1 1 0 6 1
pinlabel=A3
T 38550 43600 5 8 0 1 0 8 1
pintype=pas
}
V 38650 43600 50 6 0 0 0 -1 -1 0 -1 -1 -1 -1 -1
P 38900 43200 38700 43200 1 0 0
{
T 38795 43245 5 8 0 1 0 0 1
pinnumber=5
T 38700 43150 5 8 0 1 0 2 1
pinseq=5
T 38545 43195 9 8 1 1 0 6 1
pinlabel=A4
T 38550 43200 5 8 0 1 0 8 1
pintype=pas
}
V 38650 43200 50 6 0 0 0 -1 -1 0 -1 -1 -1 -1 -1
P 38900 42800 38700 42800 1 0 0
{
T 38795 42845 5 8 0 1 0 0 1
pinnumber=6
T 38700 42750 5 8 0 1 0 2 1
pinseq=6
T 38545 42795 9 8 1 1 0 6 1
pinlabel=A5
T 38550 42800 5 8 0 1 0 8 1
pintype=pas
}
V 38650 42800 50 6 0 0 0 -1 -1 0 -1 -1 -1 -1 -1
P 38900 42400 38700 42400 1 0 0
{
T 38795 42445 5 8 0 1 0 0 1
pinnumber=7
T 38700 42350 5 8 0 1 0 2 1
pinseq=7
T 38545 42395 9 8 1 1 0 6 1
pinlabel=A6
T 38550 42400 5 8 0 1 0 8 1
pintype=pas
}
V 38650 42400 50 6 0 0 0 -1 -1 0 -1 -1 -1 -1 -1
P 38900 42000 38700 42000 1 0 0
{
T 38795 42045 5 8 0 1 0 0 1
pinnumber=8
T 38700 41950 5 8 0 1 0 2 1
pinseq=8
T 38545 41995 9 8 1 1 0 6 1
pinlabel=A7
T 38550 42000 5 8 0 1 0 8 1
pintype=pas
}
V 38650 42000 50 6 0 0 0 -1 -1 0 -1 -1 -1 -1 -1
B 38200 41600 400 3600 3 0 0 0 -1 -1 0 -1 -1 -1 -1 -1
]
{
T 38200 45300 5 10 1 1 0 0 1
refdes=CONN2
T 38600 45250 5 10 0 0 0 0 1
device=ArduinoConn2
T 38600 45450 5 10 0 0 0 0 1
footprint=SIP8N
}
C 48500 42000 1 0 0 EMBEDDEDArduinoConn3.sym
[
T 49200 45700 8 10 0 1 0 6 1
refdes=CONN?
T 48800 45650 5 10 0 0 0 0 1
device=ArduinoConn3
T 48800 45850 5 10 0 0 0 0 1
footprint=SIP8N
T 48800 46050 5 10 0 0 0 0 1
author=Leon Kos
T 48800 46250 5 10 0 0 0 0 1
description=generic connector
T 48800 46450 5 10 0 0 0 0 1
numslots=0
P 48500 45200 48700 45200 1 0 0
{
T 48700 45250 5 8 0 1 0 6 1
pinnumber=1
T 48700 45150 5 8 0 1 0 8 1
pinseq=1
T 48850 45200 9 8 1 1 0 0 1
pinlabel=7
T 48850 45200 5 8 0 1 0 2 1
pintype=pas
}
V 48750 45200 50 6 0 0 0 -1 -1 0 -1 -1 -1 -1 -1
P 48500 44800 48700 44800 1 0 0
{
T 48700 44850 5 8 0 1 0 6 1
pinnumber=2
T 48700 44750 5 8 0 1 0 8 1
pinseq=2
T 48850 44800 9 8 1 1 0 0 1
pinlabel=6
T 48850 44800 5 8 0 1 0 2 1
pintype=pas
}
V 48750 44800 50 6 0 0 0 -1 -1 0 -1 -1 -1 -1 -1
P 48500 44400 48700 44400 1 0 0
{
T 48700 44450 5 8 0 1 0 6 1
pinnumber=3
T 48700 44350 5 8 0 1 0 8 1
pinseq=3
T 48850 44400 9 8 1 1 0 0 1
pinlabel=5
T 48850 44400 5 8 0 1 0 2 1
pintype=pas
}
V 48750 44400 50 6 0 0 0 -1 -1 0 -1 -1 -1 -1 -1
P 48500 44000 48700 44000 1 0 0
{
T 48700 44050 5 8 0 1 0 6 1
pinnumber=4
T 48700 43950 5 8 0 1 0 8 1
pinseq=4
T 48850 44000 9 8 1 1 0 0 1
pinlabel=4
T 48850 44000 5 8 0 1 0 2 1
pintype=pas
}
V 48750 44000 50 6 0 0 0 -1 -1 0 -1 -1 -1 -1 -1
P 48500 43600 48700 43600 1 0 0
{
T 48700 43650 5 8 0 1 0 6 1
pinnumber=5
T 48700 43550 5 8 0 1 0 8 1
pinseq=5
T 48850 43600 9 8 1 1 0 0 1
pinlabel=3
T 48850 43600 5 8 0 1 0 2 1
pintype=pas
}
V 48750 43600 50 6 0 0 0 -1 -1 0 -1 -1 -1 -1 -1
P 48500 43200 48700 43200 1 0 0
{
T 48700 43250 5 8 0 1 0 6 1
pinnumber=6
T 48700 43150 5 8 0 1 0 8 1
pinseq=6
T 48850 43200 9 8 1 1 0 0 1
pinlabel=2
T 48850 43200 5 8 0 1 0 2 1
pintype=pas
}
V 48750 43200 50 6 0 0 0 -1 -1 0 -1 -1 -1 -1 -1
P 48500 42800 48700 42800 1 0 0
{
T 48700 42850 5 8 0 1 0 6 1
pinnumber=7
T 48700 42750 5 8 0 1 0 8 1
pinseq=7
T 48850 42800 9 8 1 1 0 0 1
pinlabel=1 Tx
T 48850 42800 5 8 0 1 0 2 1
pintype=pas
}
V 48750 42800 50 6 0 0 0 -1 -1 0 -1 -1 -1 -1 -1
P 48500 42400 48700 42400 1 0 0
{
T 48700 42450 5 8 0 1 0 6 1
pinnumber=8
T 48700 42350 5 8 0 1 0 8 1
pinseq=8
T 48850 42400 9 8 1 1 0 0 1
pinlabel=0 Rx
T 48850 42400 5 8 0 1 0 2 1
pintype=pas
}
V 48750 42400 50 6 0 0 0 -1 -1 0 -1 -1 -1 -1 -1
B 48800 42000 400 3600 3 0 0 0 -1 -1 0 -1 -1 -1 -1 -1
]
{
T 49200 45700 5 10 1 1 0 6 1
refdes=CONN3
T 48800 45650 5 10 0 0 0 0 1
device=ArduinoConn3
T 48800 45850 5 10 0 0 0 0 1
footprint=SIP8N
}
C 49400 46500 1 0 0 EMBEDDEDArduinoConn4.sym
[
T 50100 51000 8 10 0 1 0 6 1
refdes=CONN?
T 49700 50950 5 10 0 0 0 0 1
device=CONNECTOR_10
T 49700 51150 5 10 0 0 0 0 1
footprint=SIP10N
T 49700 51350 5 10 0 0 0 0 1
author=Leon Kos
T 49700 51550 5 10 0 0 0 0 1
description=generic connector
T 49700 51750 5 10 0 0 0 0 1
numslots=0
P 49400 50500 49600 50500 1 0 0
{
T 49600 50550 5 8 0 1 0 6 1
pinnumber=1
T 49600 50450 5 8 0 1 0 8 1
pinseq=1
T 49750 50500 9 8 1 1 0 0 1
pinlabel=SCL
T 49750 50500 5 8 0 1 0 2 1
pintype=pas
}
V 49650 50500 50 6 0 0 0 -1 -1 0 -1 -1 -1 -1 -1
P 49400 50100 49600 50100 1 0 0
{
T 49600 50150 5 8 0 1 0 6 1
pinnumber=2
T 49600 50050 5 8 0 1 0 8 1
pinseq=2
T 49750 50100 9 8 1 1 0 0 1
pinlabel=SDA
T 49750 50100 5 8 0 1 0 2 1
pintype=pas
}
V 49650 50100 50 6 0 0 0 -1 -1 0 -1 -1 -1 -1 -1
P 49400 49700 49600 49700 1 0 0
{
T 49600 49750 5 8 0 1 0 6 1
pinnumber=3
T 49600 49650 5 8 0 1 0 8 1
pinseq=3
T 49750 49700 9 8 1 1 0 0 1
pinlabel=AVdd
T 49750 49700 5 8 0 1 0 2 1
pintype=pas
}
V 49650 49700 50 6 0 0 0 -1 -1 0 -1 -1 -1 -1 -1
P 49400 49300 49600 49300 1 0 0
{
T 49600 49350 5 8 0 1 0 6 1
pinnumber=4
T 49600 49250 5 8 0 1 0 8 1
pinseq=4
T 49750 49300 9 8 1 1 0 0 1
pinlabel=Gnd
T 49750 49300 5 8 0 1 0 2 1
pintype=pas
}
V 49650 49300 50 6 0 0 0 -1 -1 0 -1 -1 -1 -1 -1
P 49400 48900 49600 48900 1 0 0
{
T 49600 48950 5 8 0 1 0 6 1
pinnumber=5
T 49600 48850 5 8 0 1 0 8 1
pinseq=5
T 49750 48900 9 8 1 1 0 0 1
pinlabel=13
T 49750 48900 5 8 0 1 0 2 1
pintype=pas
}
V 49650 48900 50 6 0 0 0 -1 -1 0 -1 -1 -1 -1 -1
P 49400 48500 49600 48500 1 0 0
{
T 49600 48550 5 8 0 1 0 6 1
pinnumber=6
T 49600 48450 5 8 0 1 0 8 1
pinseq=6
T 49750 48500 9 8 1 1 0 0 1
pinlabel=12
T 49750 48500 5 8 0 1 0 2 1
pintype=pas
}
V 49650 48500 50 6 0 0 0 -1 -1 0 -1 -1 -1 -1 -1
P 49400 48100 49600 48100 1 0 0
{
T 49600 48150 5 8 0 1 0 6 1
pinnumber=7
T 49600 48050 5 8 0 1 0 8 1
pinseq=7
T 49750 48100 9 8 1 1 0 0 1
pinlabel=11
T 49750 48100 5 8 0 1 0 2 1
pintype=pas
}
V 49650 48100 50 6 0 0 0 -1 -1 0 -1 -1 -1 -1 -1
P 49400 47700 49600 47700 1 0 0
{
T 49600 47750 5 8 0 1 0 6 1
pinnumber=8
T 49600 47650 5 8 0 1 0 8 1
pinseq=8
T 49750 47700 9 8 1 1 0 0 1
pinlabel=10
T 49750 47700 5 8 0 1 0 2 1
pintype=pas
}
V 49650 47700 50 6 0 0 0 -1 -1 0 -1 -1 -1 -1 -1
P 49400 47300 49600 47300 1 0 0
{
T 49600 47350 5 8 0 1 0 6 1
pinnumber=9
T 49600 47250 5 8 0 1 0 8 1
pinseq=9
T 49750 47300 9 8 1 1 0 0 1
pinlabel=9
T 49750 47300 5 8 0 1 0 2 1
pintype=pas
}
V 49650 47300 50 6 0 0 0 -1 -1 0 -1 -1 -1 -1 -1
P 49400 46900 49600 46900 1 0 0
{
T 49600 46950 5 8 0 1 0 6 1
pinnumber=10
T 49600 46850 5 8 0 1 0 8 1
pinseq=10
T 49750 46900 9 8 1 1 0 0 1
pinlabel=8
T 49750 46900 5 8 0 1 0 2 1
pintype=pas
}
V 49650 46900 50 6 0 0 0 -1 -1 0 -1 -1 -1 -1 -1
B 49700 46500 400 4400 3 0 0 0 -1 -1 0 -1 -1 -1 -1 -1
]
{
T 50100 51000 5 10 1 1 0 6 1
refdes=CONN5
T 49700 50950 5 10 0 0 0 0 1
device=CONNECTOR_10
T 49700 51150 5 10 0 0 0 0 1
footprint=SIP10N
}
C 48400 46300 1 0 0 EMBEDDEDArduinoConn4.sym
[
T 49100 50800 8 10 0 1 0 6 1
refdes=CONN?
T 48700 50750 5 10 0 0 0 0 1
device=CONNECTOR_10
T 48700 50950 5 10 0 0 0 0 1
footprint=SIP10N
T 48700 51150 5 10 0 0 0 0 1
author=Leon Kos
T 48700 51350 5 10 0 0 0 0 1
description=generic connector
T 48700 51550 5 10 0 0 0 0 1
numslots=0
P 48400 50300 48600 50300 1 0 0
{
T 48600 50350 5 8 0 1 0 6 1
pinnumber=1
T 48600 50250 5 8 0 1 0 8 1
pinseq=1
T 48750 50300 9 8 1 1 0 0 1
pinlabel=SCL
T 48750 50300 5 8 0 1 0 2 1
pintype=pas
}
V 48650 50300 50 6 0 0 0 -1 -1 0 -1 -1 -1 -1 -1
P 48400 49900 48600 49900 1 0 0
{
T 48600 49950 5 8 0 1 0 6 1
pinnumber=2
T 48600 49850 5 8 0 1 0 8 1
pinseq=2
T 48750 49900 9 8 1 1 0 0 1
pinlabel=SDA
T 48750 49900 5 8 0 1 0 2 1
pintype=pas
}
V 48650 49900 50 6 0 0 0 -1 -1 0 -1 -1 -1 -1 -1
P 48400 49500 48600 49500 1 0 0
{
T 48600 49550 5 8 0 1 0 6 1
pinnumber=3
T 48600 49450 5 8 0 1 0 8 1
pinseq=3
T 48750 49500 9 8 1 1 0 0 1
pinlabel=AVdd
T 48750 49500 5 8 0 1 0 2 1
pintype=pas
}
V 48650 49500 50 6 0 0 0 -1 -1 0 -1 -1 -1 -1 -1
P 48400 49100 48600 49100 1 0 0
{
T 48600 49150 5 8 0 1 0 6 1
pinnumber=4
T 48600 49050 5 8 0 1 0 8 1
pinseq=4
T 48750 49100 9 8 1 1 0 0 1
pinlabel=Gnd
T 48750 49100 5 8 0 1 0 2 1
pintype=pas
}
V 48650 49100 50 6 0 0 0 -1 -1 0 -1 -1 -1 -1 -1
P 48400 48700 48600 48700 1 0 0
{
T 48600 48750 5 8 0 1 0 6 1
pinnumber=5
T 48600 48650 5 8 0 1 0 8 1
pinseq=5
T 48750 48700 9 8 1 1 0 0 1
pinlabel=13
T 48750 48700 5 8 0 1 0 2 1
pintype=pas
}
V 48650 48700 50 6 0 0 0 -1 -1 0 -1 -1 -1 -1 -1
P 48400 48300 48600 48300 1 0 0
{
T 48600 48350 5 8 0 1 0 6 1
pinnumber=6
T 48600 48250 5 8 0 1 0 8 1
pinseq=6
T 48750 48300 9 8 1 1 0 0 1
pinlabel=12
T 48750 48300 5 8 0 1 0 2 1
pintype=pas
}
V 48650 48300 50 6 0 0 0 -1 -1 0 -1 -1 -1 -1 -1
P 48400 47900 48600 47900 1 0 0
{
T 48600 47950 5 8 0 1 0 6 1
pinnumber=7
T 48600 47850 5 8 0 1 0 8 1
pinseq=7
T 48750 47900 9 8 1 1 0 0 1
pinlabel=11
T 48750 47900 5 8 0 1 0 2 1
pintype=pas
}
V 48650 47900 50 6 0 0 0 -1 -1 0 -1 -1 -1 -1 -1
P 48400 47500 48600 47500 1 0 0
{
T 48600 47550 5 8 0 1 0 6 1
pinnumber=8
T 48600 47450 5 8 0 1 0 8 1
pinseq=8
T 48750 47500 9 8 1 1 0 0 1
pinlabel=10
T 48750 47500 5 8 0 1 0 2 1
pintype=pas
}
V 48650 47500 50 6 0 0 0 -1 -1 0 -1 -1 -1 -1 -1
P 48400 47100 48600 47100 1 0 0
{
T 48600 47150 5 8 0 1 0 6 1
pinnumber=9
T 48600 47050 5 8 0 1 0 8 1
pinseq=9
T 48750 47100 9 8 1 1 0 0 1
pinlabel=9
T 48750 47100 5 8 0 1 0 2 1
pintype=pas
}
V 48650 47100 50 6 0 0 0 -1 -1 0 -1 -1 -1 -1 -1
P 48400 46700 48600 46700 1 0 0
{
T 48600 46750 5 8 0 1 0 6 1
pinnumber=10
T 48600 46650 5 8 0 1 0 8 1
pinseq=10
T 48750 46700 9 8 1 1 0 0 1
pinlabel=8
T 48750 46700 5 8 0 1 0 2 1
pintype=pas
}
V 48650 46700 50 6 0 0 0 -1 -1 0 -1 -1 -1 -1 -1
B 48700 46300 400 4400 3 0 0 0 -1 -1 0 -1 -1 -1 -1 -1
]
{
T 49100 50800 5 10 1 1 0 6 1
refdes=CONN4
T 48700 50750 5 10 0 0 0 0 1
device=CONNECTOR_10
T 48700 50950 5 10 0 0 0 0 1
footprint=SIP10N
}
T 56900 41300 9 10 1 0 0 0 1
Up
T 55800 42300 9 10 1 0 0 0 1
Left
T 55800 40300 9 10 1 0 0 0 1
Right
T 54700 41300 9 10 1 0 0 0 1
Down
T 55200 44700 9 10 1 0 0 0 2
Backlight
Enable
T 41900 49400 9 10 1 0 0 0 1
dsPIC33EV
T 41900 50200 9 10 1 0 0 0 1
PIC24EV
T 51200 46300 9 10 1 0 0 0 2
 LCD
Enable
T 49700 43600 9 10 1 0 90 0 1
Buttons
T 49700 42400 9 10 1 0 90 0 1
LEDs
T 48800 39300 9 10 1 0 0 0 2
Micro
 USB
T 43700 40000 9 10 1 0 0 0 1
XH
N 48100 49900 48100 43200 4
N 48100 49900 49400 49900 4
N 45500 39500 47100 39500 4
