G04 start of page 3 for group 1 idx 1 *
G04 Title: dsPIC-EL for EV256GM1, solder *
G04 Creator: pcb 20110918 *
G04 CreationDate: Thu 12 Nov 2015 01:59:23 PM GMT UTC *
G04 For: jjmcd *
G04 Format: Gerber/RS-274X *
G04 PCB-Dimensions: 393000 393000 *
G04 PCB-Coordinate-Origin: lower left *
%MOIN*%
%FSLAX25Y25*%
%LNBOTTOM*%
%ADD54C,0.1020*%
%ADD53C,0.0400*%
%ADD52C,0.1200*%
%ADD51C,0.0280*%
%ADD50C,0.0150*%
%ADD49C,0.0300*%
%ADD48C,0.0380*%
%ADD47C,0.0350*%
%ADD46C,0.0200*%
%ADD45C,0.0360*%
%ADD44R,0.0600X0.0600*%
%ADD43R,0.0354X0.0354*%
%ADD42R,0.0098X0.0098*%
%ADD41C,0.0500*%
%ADD40C,0.1400*%
%ADD39C,0.0700*%
%ADD38C,0.0800*%
%ADD37C,0.1600*%
%ADD36C,0.0550*%
%ADD35C,0.0001*%
%ADD34C,0.0600*%
%ADD33C,0.0250*%
%ADD32C,0.0100*%
G54D32*X242000Y263000D02*X247000Y268000D01*
X252000Y262000D02*X256000Y266000D01*
G54D33*X240000Y383000D02*Y274000D01*
X245000D01*
Y283000D02*X240000D01*
X245000Y292000D02*X240000D01*
G54D32*X282000Y266000D02*X291000Y275000D01*
X283000Y264000D02*X296000Y277000D01*
X284000Y262000D02*X301000Y279000D01*
X291000Y240000D02*X309000D01*
X291000Y275000D02*Y302000D01*
X296000Y277000D02*Y302000D01*
X301000Y279000D02*Y302000D01*
X262000Y240000D02*Y260000D01*
X272000Y240000D02*Y257000D01*
X252000Y262000D02*Y231000D01*
X262000Y241000D02*Y231000D01*
X272000Y241000D02*Y231000D01*
X262000Y260000D02*X266000Y264000D01*
X272000Y257000D02*X277000Y262000D01*
X284000D01*
X247000Y268000D02*X281000D01*
X286000Y273000D01*
Y302000D01*
X256000Y266000D02*X282000D01*
X266000Y264000D02*X283000D01*
X275000Y325500D02*X346500D01*
X366500Y345500D01*
X275000Y333000D02*Y333500D01*
X297500Y356000D01*
X341000D01*
X275000Y318000D02*X311000D01*
X308000Y306000D02*X340500D01*
X303500Y310500D02*X308000Y306000D01*
X275000Y310500D02*X303500D01*
G54D33*X200000Y323000D02*X190000D01*
X210000Y333000D02*Y323000D01*
X220000Y333000D02*Y323000D01*
X230000Y333000D02*Y323000D01*
X235000Y388000D02*X240000Y383000D01*
Y348000D02*X245000D01*
Y355500D02*X240000D01*
X245000Y363000D02*X240000D01*
X245000Y370500D02*X240000D01*
X190000Y353000D02*Y343000D01*
X200000Y353000D02*Y343000D01*
Y333000D02*X190000D01*
X180000Y353000D02*Y343000D01*
Y333000D02*Y323000D01*
X210000Y353000D02*Y343000D01*
X220000Y353000D02*Y343000D01*
X230000Y353000D02*Y343000D01*
Y313000D02*Y303000D01*
Y293000D02*Y283000D01*
Y273000D02*Y263000D01*
X198000Y166000D02*Y122000D01*
G54D32*X183000Y124000D02*Y133000D01*
G54D33*X198000Y165000D02*X204000Y171000D01*
X178000Y117000D02*X181000Y120000D01*
X196000D01*
X198000Y122000D01*
X178000Y117000D02*X176000Y119000D01*
X168000Y138000D02*X135000Y171000D01*
X145000D02*Y208000D01*
X135000Y171000D02*Y208000D01*
X178000Y138000D02*X145000Y171000D01*
G54D32*X202500Y195500D02*X158000D01*
X162500D02*X152000D01*
X190000Y203000D02*X200000Y213000D01*
X218500Y190500D02*X155500D01*
X158000D02*X152000D01*
X238000Y108000D02*Y117000D01*
X223000Y132000D01*
Y157000D02*Y132000D01*
X218000Y68000D02*Y117000D01*
Y107000D02*Y93000D01*
Y117000D02*X203000Y132000D01*
X216000Y209000D02*X202500Y195500D01*
X230000Y202000D02*X218500Y190500D01*
X210000Y203000D02*X218000Y211000D01*
X215000Y61000D02*Y74000D01*
X208000Y81000D01*
Y108000D01*
G54D33*X140000Y15000D02*X150000D01*
Y32000D01*
G54D32*X137962Y101962D02*X138000Y102000D01*
X147859Y97859D02*X148000Y98000D01*
G54D33*X150000Y32000D02*X178000Y60000D01*
G54D32*X196000Y26000D02*X200000Y22000D01*
Y15000D01*
X180000D02*Y37000D01*
X190000Y15000D02*Y37000D01*
X196000Y26000D02*Y37000D01*
G54D33*X178000Y117000D02*Y60000D01*
G54D32*X188000Y87800D02*X191200Y91000D01*
X191000D01*
X188000Y94000D01*
Y109000D01*
X178000Y60000D02*X198000D01*
G54D33*X208000Y69500D02*X178000D01*
G54D32*X188000Y80000D02*Y87800D01*
X198000Y108000D02*Y94200D01*
X194800Y91000D01*
X195000D01*
X198000Y88000D01*
Y80000D01*
X202000Y30000D02*X210000Y22000D01*
X202000Y30000D02*Y37000D01*
X210000Y22000D02*Y15000D01*
X230000Y22000D02*Y15000D01*
X214000Y38000D02*X230000Y22000D01*
X207000Y37000D02*X220000Y24000D01*
Y15000D01*
X218000Y68000D02*X250000Y36000D01*
X240000Y15000D02*Y36000D01*
X215000Y61000D01*
X103500Y8000D02*X248000D01*
X250000Y10000D01*
Y36000D02*Y10000D01*
G54D33*X31000Y382627D02*Y228000D01*
X52000Y344000D02*Y262000D01*
X31000Y228000D02*X21000Y218000D01*
X52000Y262000D02*X57000Y257000D01*
X61000Y375000D02*Y382627D01*
X36373Y388000D02*X31000Y382627D01*
G54D32*X36000Y372000D02*X49000D01*
X51000Y374000D01*
Y382627D01*
G54D33*X52000Y343000D02*Y355000D01*
X61000Y382000D02*Y374000D01*
X68000Y367000D01*
Y267000D01*
X181000Y382627D02*Y384000D01*
X177000Y388000D01*
X36373D02*X235000D01*
X57000Y257000D02*X118000D01*
X68000Y267000D02*X72000Y263000D01*
X122000D01*
X118000Y257000D02*X130000Y245000D01*
X120000Y273000D02*X130000D01*
X122000Y263000D02*X123500Y261500D01*
X122000Y263000D02*X140000Y245000D01*
Y273000D02*Y263000D01*
G54D32*X172000Y240000D02*X173000D01*
G54D33*X130000Y245000D02*Y240000D01*
X139750Y245250D02*Y240250D01*
X140000Y240000D01*
G54D32*X242000Y263000D02*Y231000D01*
G54D33*X140000Y313000D02*Y303000D01*
X130000Y313000D02*Y303000D01*
X140000Y323000D02*X130000D01*
X80000Y313000D02*Y303000D01*
X120000Y313000D02*Y303000D01*
X100000Y323000D02*X90000D01*
X110000D02*X120000D01*
X100000Y313000D02*X110000D01*
X100000Y303000D02*X110000D01*
X90000Y313000D02*Y303000D01*
X100000Y293000D02*Y283000D01*
X110000Y293000D02*Y283000D01*
X80000D02*X90000D01*
Y292500D02*X80000D01*
X120000Y293000D02*Y283000D01*
X130000Y293000D02*X140000D01*
X130000Y283000D02*X140000D01*
G54D32*X171500Y240500D02*X172000Y240000D01*
X90000Y215000D02*Y230000D01*
X100000Y215000D02*Y230000D01*
X110000Y215000D02*Y230000D01*
X120000Y215000D02*Y230000D01*
G54D33*X110000Y213000D02*Y229000D01*
X120000Y213000D02*Y230000D01*
G54D32*X130000Y215000D02*Y230000D01*
G54D33*Y213000D02*Y230000D01*
G54D32*X140000Y215000D02*Y230000D01*
G54D33*Y213000D02*Y230000D01*
X90000Y213000D02*Y230000D01*
X100000Y213000D02*Y230000D01*
X160500Y353000D02*Y382127D01*
X161000Y382627D01*
X151000Y347000D02*Y382627D01*
X141000Y341000D02*Y382627D01*
X131000Y336000D02*Y382627D01*
X170000Y323000D02*Y333000D01*
X160000Y323000D02*Y333000D01*
X150000Y323000D02*Y333000D01*
X176000Y119000D02*X100000D01*
X94000Y125000D01*
G54D32*X118000Y138000D02*Y119000D01*
G54D33*X94000Y137000D02*Y125000D01*
G54D32*X173000Y124000D02*Y133000D01*
X158000Y90000D02*X79000D01*
X168000Y94000D02*X84000D01*
X76000Y93000D02*Y99000D01*
X84000Y94000D02*X83000Y95000D01*
X95870Y101962D02*X137962D01*
X100925Y97859D02*X147859D01*
G54D33*X145000Y208000D02*X140000Y213000D01*
X135000Y208000D02*X130000Y213000D01*
X105000Y203000D02*Y208000D01*
X100000Y213000D01*
X115000Y203000D02*Y208000D01*
X110000Y213000D01*
X125000Y203000D02*Y208000D01*
X120000Y213000D01*
G54D32*X131000Y190500D02*X91000D01*
X130500Y195500D02*X88000D01*
X89000Y189000D02*X89250Y189250D01*
X90500Y190500D02*X89000Y189000D01*
X88000Y195500D02*X85500Y193000D01*
G54D33*X85000Y201500D02*X79500Y196000D01*
X85000Y201500D02*Y208000D01*
X80000Y213000D01*
X95000Y203000D02*Y208000D01*
X90000Y213000D01*
X65000Y203000D02*Y208000D01*
X75000Y203000D02*Y208000D01*
X70000Y213000D01*
X65000Y208000D02*X60000Y213000D01*
X55000Y208000D02*X50000Y213000D01*
X55000Y203000D02*Y208000D01*
Y176000D02*X48500Y182500D01*
Y193000D01*
X79500Y196000D02*X45500D01*
G54D32*X65000Y192000D02*X84500D01*
X85750Y193250D01*
X55000Y189000D02*X89000D01*
G54D33*X9000Y125000D02*X3000Y131000D01*
G54D32*X24000Y129000D02*Y142000D01*
X21000Y145000D01*
X10000D01*
G54D33*X17000Y185000D02*X3000D01*
Y131000D02*Y200000D01*
G54D32*X10000Y125000D02*X2500Y117500D01*
G54D33*X3000Y200000D02*X7000Y204000D01*
X21000Y218000D02*Y204000D01*
X37000D02*X7000D01*
X37500D02*X48500Y193000D01*
X94000Y125000D02*X10000D01*
G54D32*Y145000D02*X67500D01*
X74000Y151500D01*
X51000Y115000D02*X10000D01*
X50000D02*X60000D01*
X66000Y109000D01*
X51000Y105000D02*X10000D01*
X2500Y117500D02*Y80000D01*
X16000Y66500D01*
X40500D02*X26000D01*
X49000Y105000D02*X60000D01*
X66000Y99000D01*
X83000Y95000D02*Y107000D01*
X81000Y109000D01*
X76000D01*
X79000Y90000D02*X76000Y93000D01*
X100000Y15000D02*Y11500D01*
X103500Y8000D01*
G54D33*X310000Y191000D02*Y204000D01*
Y180000D02*Y191000D01*
X300000Y180000D02*Y203000D01*
X290000Y180000D02*Y203000D01*
X280000Y180000D02*Y203000D01*
X320000Y190000D02*Y203000D01*
Y180000D02*Y189000D01*
X382000Y203125D02*Y164875D01*
X369000D01*
G54D32*X381559Y181441D02*X382000Y181000D01*
X365250Y178882D02*X381882D01*
X382000Y179000D01*
G54D33*Y203125D02*X369000D01*
G54D32*X365250Y189118D02*X352118D01*
X352000Y189000D01*
G54D33*X356882Y189118D02*X352882D01*
G54D32*X376000Y232000D02*Y224000D01*
X350000Y232000D02*Y226000D01*
X347000Y223000D01*
X376000Y224000D02*X372000Y220000D01*
X365000Y178882D02*X352441D01*
G54D33*X369375Y164875D02*X351125D01*
X351000Y165000D01*
G54D32*X352441Y178882D02*X351500Y177941D01*
G54D33*X352441Y178882D02*X352382D01*
X344500Y171000D01*
X204000D02*X344559D01*
X270000Y180000D02*Y203000D01*
X260000Y180000D02*Y203000D01*
X250000Y181000D02*Y203000D01*
G54D32*X218000Y211000D02*X268000D01*
X272000Y215000D01*
X200000Y213000D02*X249000D01*
X252000Y216000D01*
Y220000D01*
X340000Y88000D02*X222500D01*
X272000Y215000D02*Y220000D01*
X316000D02*X312000Y224000D01*
Y227000D01*
X308000Y231000D01*
X302000D01*
X372000Y220000D02*X316000D01*
X347000Y223000D02*X321000D01*
X308000Y236000D01*
X309000Y240000D02*X317000Y232000D01*
X325000D01*
X308000Y236000D02*X297000D01*
X292000Y231000D01*
X282000D02*X291000Y240000D01*
X345000Y93000D02*Y117000D01*
Y93500D02*Y93000D01*
X340000Y88000D01*
X345000Y101000D02*Y155000D01*
G54D33*X359500Y143500D02*Y156500D01*
X344780Y171220D01*
X357250Y158750D02*X378500Y137500D01*
Y109000D01*
G54D34*X150000Y15000D03*
X160000D03*
G54D35*G36*
X177000Y18000D02*Y12000D01*
X183000D01*
Y18000D01*
X177000D01*
G37*
G54D34*X190000Y15000D03*
X200000D03*
X210000D03*
X220000D03*
X230000D03*
G54D35*G36*
X195250Y62750D02*Y57250D01*
X200750D01*
Y62750D01*
X195250D01*
G37*
G54D36*X198000Y80000D03*
G54D35*G36*
X189950Y92250D02*Y89750D01*
X192450D01*
Y92250D01*
X189950D01*
G37*
G54D33*X194800Y91000D03*
G54D35*G36*
X185250Y62750D02*Y57250D01*
X190750D01*
Y62750D01*
X185250D01*
G37*
G54D36*X188000Y80000D03*
G54D35*G36*
X225250Y72250D02*Y66750D01*
X230750D01*
Y72250D01*
X225250D01*
G37*
G54D36*X208000Y69500D03*
G54D34*X118000Y108000D03*
X128000D03*
X138000D03*
X148000D03*
X158000D03*
X168000D03*
X178000D03*
X188000D03*
X198000D03*
X240000Y15000D03*
X250000D03*
G54D37*X382000Y10000D03*
G54D35*G36*
X375500Y102000D02*Y96000D01*
X381500D01*
Y102000D01*
X375500D01*
G37*
G54D34*X378500Y109000D03*
G54D35*G36*
X157000Y206000D02*Y200000D01*
X163000D01*
Y206000D01*
X157000D01*
G37*
G54D34*X170000Y203000D03*
X180000D03*
X190000D03*
X200000D03*
G54D35*G36*
X185000Y168000D02*Y162000D01*
X191000D01*
Y168000D01*
X185000D01*
G37*
G54D34*X198000Y165000D03*
G54D35*G36*
X187000Y183000D02*Y177000D01*
X193000D01*
Y183000D01*
X187000D01*
G37*
G36*
X197000D02*Y177000D01*
X203000D01*
Y183000D01*
X197000D01*
G37*
G36*
X169000Y233000D02*Y227000D01*
X175000D01*
Y233000D01*
X169000D01*
G37*
G54D34*X182000Y230000D03*
X192000D03*
Y240000D03*
X182000D03*
X172000D03*
X242000Y231000D03*
G54D35*G36*
X157000Y183000D02*Y177000D01*
X163000D01*
Y183000D01*
X157000D01*
G37*
G36*
X167000D02*Y177000D01*
X173000D01*
Y183000D01*
X167000D01*
G37*
G36*
X177000D02*Y177000D01*
X183000D01*
Y183000D01*
X177000D01*
G37*
G36*
X207000D02*Y177000D01*
X213000D01*
Y183000D01*
X207000D01*
G37*
G36*
X217000D02*Y177000D01*
X223000D01*
Y183000D01*
X217000D01*
G37*
G36*
X227000D02*Y177000D01*
X233000D01*
Y183000D01*
X227000D01*
G37*
G54D34*X85000Y203000D03*
X95000D03*
X105000D03*
X115000D03*
X125000D03*
X135000D03*
X145000D03*
X80000Y213000D03*
X90000D03*
X100000D03*
X110000D03*
X120000D03*
X130000D03*
X140000D03*
X210000Y203000D03*
X208000Y138000D03*
X220000Y203000D03*
X218000Y138000D03*
X198000D03*
X188000D03*
X178000D03*
X168000D03*
X158000D03*
X148000D03*
G54D35*G36*
X87000Y233000D02*Y227000D01*
X93000D01*
Y233000D01*
X87000D01*
G37*
G54D34*X100000Y230000D03*
X110000D03*
X120000D03*
X130000D03*
X140000D03*
Y240000D03*
X130000D03*
X120000D03*
X110000D03*
X100000D03*
X90000D03*
X138000Y138000D03*
G54D35*G36*
X142062Y182904D02*Y176904D01*
X148062D01*
Y182904D01*
X142062D01*
G37*
G54D34*X128000Y138000D03*
X118000D03*
X108000D03*
G54D36*X74000Y151500D03*
G54D35*G36*
X132022Y182904D02*Y176904D01*
X138022D01*
Y182904D01*
X132022D01*
G37*
G36*
X121982D02*Y176904D01*
X127982D01*
Y182904D01*
X121982D01*
G37*
G36*
X112160Y182685D02*Y176685D01*
X118160D01*
Y182685D01*
X112160D01*
G37*
G36*
X102120Y182467D02*Y176467D01*
X108120D01*
Y182467D01*
X102120D01*
G37*
G36*
X92079D02*Y176467D01*
X98079D01*
Y182467D01*
X92079D01*
G37*
G54D36*X94000Y137000D03*
X75000Y176000D03*
G54D35*G36*
X52000Y206000D02*Y200000D01*
X58000D01*
Y206000D01*
X52000D01*
G37*
G54D34*X65000Y203000D03*
X75000D03*
G54D35*G36*
X47000Y216000D02*Y210000D01*
X53000D01*
Y216000D01*
X47000D01*
G37*
G54D34*X60000Y213000D03*
X70000D03*
G54D35*G36*
X3000Y228000D02*Y220000D01*
X11000D01*
Y228000D01*
X3000D01*
G37*
G54D38*X7000Y204000D03*
X37000Y224000D03*
Y204000D03*
G54D35*G36*
X7000Y148000D02*Y142000D01*
X13000D01*
Y148000D01*
X7000D01*
G37*
G54D34*X10000Y135000D03*
Y125000D03*
Y115000D03*
Y105000D03*
Y95000D03*
G54D35*G36*
X14000Y188000D02*Y182000D01*
X20000D01*
Y188000D01*
X14000D01*
G37*
G54D34*X17000Y165000D03*
X37000Y175000D03*
G54D35*G36*
X41250Y154250D02*Y148750D01*
X46750D01*
Y154250D01*
X41250D01*
G37*
G36*
X73000Y112000D02*Y106000D01*
X79000D01*
Y112000D01*
X73000D01*
G37*
G54D34*X66000Y109000D03*
X56000D03*
G54D35*G36*
X73000Y102000D02*Y96000D01*
X79000D01*
Y102000D01*
X73000D01*
G37*
G54D34*X66000Y99000D03*
X56000D03*
G54D35*G36*
X71250Y139750D02*Y134250D01*
X76750D01*
Y139750D01*
X71250D01*
G37*
G36*
X52250Y178750D02*Y173250D01*
X57750D01*
Y178750D01*
X52250D01*
G37*
G54D34*X230000Y203000D03*
G54D35*G36*
X239000Y224000D02*Y218000D01*
X245000D01*
Y224000D01*
X239000D01*
G37*
G36*
X247000Y193000D02*Y187000D01*
X253000D01*
Y193000D01*
X247000D01*
G37*
G54D34*X250000Y180000D03*
X238000Y138000D03*
X228000D03*
G54D35*G36*
X257000Y193000D02*Y187000D01*
X263000D01*
Y193000D01*
X257000D01*
G37*
G36*
X267000D02*Y187000D01*
X273000D01*
Y193000D01*
X267000D01*
G37*
G36*
X277000D02*Y187000D01*
X283000D01*
Y193000D01*
X277000D01*
G37*
G54D34*X260000Y180000D03*
X270000D03*
X280000D03*
X290000D03*
X300000D03*
X310000D03*
G54D35*G36*
X287000Y193000D02*Y187000D01*
X293000D01*
Y193000D01*
X287000D01*
G37*
G36*
X297000D02*Y187000D01*
X303000D01*
Y193000D01*
X297000D01*
G37*
G36*
X307000D02*Y187000D01*
X313000D01*
Y193000D01*
X307000D01*
G37*
G36*
X317000D02*Y187000D01*
X323000D01*
Y193000D01*
X317000D01*
G37*
G54D34*X320000Y180000D03*
G54D35*G36*
X333500Y126500D02*Y120500D01*
X339500D01*
Y126500D01*
X333500D01*
G37*
G36*
X356750Y126250D02*Y120750D01*
X362250D01*
Y126250D01*
X356750D01*
G37*
G36*
X332000Y174000D02*Y168000D01*
X338000D01*
Y174000D01*
X332000D01*
G37*
G54D36*X359500Y143500D03*
G54D34*X208000Y108000D03*
X218000D03*
X228000D03*
X238000D03*
G54D35*G36*
X87000Y18000D02*Y12000D01*
X93000D01*
Y18000D01*
X87000D01*
G37*
G54D34*X100000Y15000D03*
X110000D03*
X120000D03*
X130000D03*
X140000D03*
G54D35*G36*
X105000Y111000D02*Y105000D01*
X111000D01*
Y111000D01*
X105000D01*
G37*
G36*
X22500Y70000D02*Y63000D01*
X29500D01*
Y70000D01*
X22500D01*
G37*
G54D39*X16000Y66500D03*
G54D35*G36*
X37750Y69250D02*Y63750D01*
X43250D01*
Y69250D01*
X37750D01*
G37*
G54D36*X40500Y96500D03*
G54D37*X10000Y10000D03*
G54D35*G36*
X310000Y320000D02*Y312000D01*
X318000D01*
Y320000D01*
X310000D01*
G37*
G54D38*X334000Y316000D03*
X314000Y346000D03*
X334000D03*
G54D35*G36*
X337000Y360000D02*Y352000D01*
X345000D01*
Y360000D01*
X337000D01*
G37*
G54D38*X361000Y356000D03*
X341000Y386000D03*
X361000D03*
G54D35*G36*
X363000Y320000D02*Y312000D01*
X371000D01*
Y320000D01*
X363000D01*
G37*
G54D38*X341000Y306000D03*
X361000D03*
X367000Y346000D03*
X387000D03*
G54D40*X303700Y382500D03*
G54D38*X387000Y316000D03*
G54D35*G36*
X372500Y235500D02*Y228500D01*
X379500D01*
Y235500D01*
X372500D01*
G37*
G54D39*X376000Y242000D03*
G54D35*G36*
X337000Y280000D02*Y272000D01*
X345000D01*
Y280000D01*
X337000D01*
G37*
G54D38*X361000Y276000D03*
G54D35*G36*
X346500Y235500D02*Y228500D01*
X353500D01*
Y235500D01*
X346500D01*
G37*
G54D39*X350000Y242000D03*
G54D35*G36*
X321500Y235500D02*Y228500D01*
X328500D01*
Y235500D01*
X321500D01*
G37*
G54D39*X325000Y242000D03*
G54D40*X303700Y256800D03*
G54D35*G36*
X247000Y206000D02*Y200000D01*
X253000D01*
Y206000D01*
X247000D01*
G37*
G54D34*X260000Y203000D03*
X270000D03*
X252000Y221000D03*
Y231000D03*
X262000Y221000D03*
Y231000D03*
X272000Y221000D03*
Y231000D03*
X282000Y221000D03*
X292000D03*
X302000D03*
X282000Y231000D03*
X292000D03*
X302000D03*
X280000Y203000D03*
X290000D03*
X300000D03*
X310000D03*
X320000D03*
G54D35*G36*
X137000Y276000D02*Y270000D01*
X143000D01*
Y276000D01*
X137000D01*
G37*
G54D34*X140000Y263000D03*
X130000Y273000D03*
X110000Y283000D03*
X100000D03*
G54D35*G36*
X77000Y286000D02*Y280000D01*
X83000D01*
Y286000D01*
X77000D01*
G37*
G54D34*X90000Y283000D03*
X120000D03*
G54D35*G36*
X117000Y276000D02*Y270000D01*
X123000D01*
Y276000D01*
X117000D01*
G37*
G36*
X127000Y286000D02*Y280000D01*
X133000D01*
Y286000D01*
X127000D01*
G37*
G54D34*X140000Y283000D03*
G54D35*G36*
X107000Y296000D02*Y290000D01*
X113000D01*
Y296000D01*
X107000D01*
G37*
G36*
Y326000D02*Y320000D01*
X113000D01*
Y326000D01*
X107000D01*
G37*
G54D34*X110000Y313000D03*
Y303000D03*
G54D35*G36*
X97000Y296000D02*Y290000D01*
X103000D01*
Y296000D01*
X97000D01*
G37*
G54D34*X100000Y323000D03*
G54D35*G36*
X97000Y316000D02*Y310000D01*
X103000D01*
Y316000D01*
X97000D01*
G37*
G36*
Y306000D02*Y300000D01*
X103000D01*
Y306000D01*
X97000D01*
G37*
G36*
X87000Y295500D02*Y289500D01*
X93000D01*
Y295500D01*
X87000D01*
G37*
G54D34*X80000Y292500D03*
G54D35*G36*
X87000Y316000D02*Y310000D01*
X93000D01*
Y316000D01*
X87000D01*
G37*
G54D34*X90000Y303000D03*
G54D35*G36*
X77000Y316000D02*Y310000D01*
X83000D01*
Y316000D01*
X77000D01*
G37*
G54D34*X80000Y303000D03*
G54D35*G36*
X87000Y326000D02*Y320000D01*
X93000D01*
Y326000D01*
X87000D01*
G37*
G36*
X117000Y296000D02*Y290000D01*
X123000D01*
Y296000D01*
X117000D01*
G37*
G36*
Y316000D02*Y310000D01*
X123000D01*
Y316000D01*
X117000D01*
G37*
G54D34*X120000Y303000D03*
Y323000D03*
X140000Y303000D03*
X130000D03*
G54D35*G36*
X127000Y296000D02*Y290000D01*
X133000D01*
Y296000D01*
X127000D01*
G37*
G54D34*X140000Y293000D03*
G54D35*G36*
X137000Y316000D02*Y310000D01*
X143000D01*
Y316000D01*
X137000D01*
G37*
G36*
X127000D02*Y310000D01*
X133000D01*
Y316000D01*
X127000D01*
G37*
G36*
Y326000D02*Y320000D01*
X133000D01*
Y326000D01*
X127000D01*
G37*
G54D34*X140000Y323000D03*
G54D37*X382000Y383000D03*
G54D35*G36*
X177000Y336000D02*Y330000D01*
X183000D01*
Y336000D01*
X177000D01*
G37*
G54D34*X180000Y323000D03*
G54D35*G36*
X197000Y356000D02*Y350000D01*
X203000D01*
Y356000D01*
X197000D01*
G37*
G54D34*X200000Y343000D03*
G54D35*G36*
X187000Y356000D02*Y350000D01*
X193000D01*
Y356000D01*
X187000D01*
G37*
G54D34*X190000Y343000D03*
G54D35*G36*
X177000Y356000D02*Y350000D01*
X183000D01*
Y356000D01*
X177000D01*
G37*
G54D34*X180000Y343000D03*
X200000Y333000D03*
Y323000D03*
G54D35*G36*
X187000Y326000D02*Y320000D01*
X193000D01*
Y326000D01*
X187000D01*
G37*
G54D34*X210000Y323000D03*
X181000Y382627D03*
G54D35*G36*
X242250Y335750D02*Y330250D01*
X247750D01*
Y335750D01*
X242250D01*
G37*
G36*
Y328250D02*Y322750D01*
X247750D01*
Y328250D01*
X242250D01*
G37*
G36*
Y320750D02*Y315250D01*
X247750D01*
Y320750D01*
X242250D01*
G37*
G36*
Y313250D02*Y307750D01*
X247750D01*
Y313250D01*
X242250D01*
G37*
G54D36*X275000Y333000D03*
Y325500D03*
Y318000D03*
Y310500D03*
G54D35*G36*
X242250Y294750D02*Y289250D01*
X247750D01*
Y294750D01*
X242250D01*
G37*
G54D36*X275000Y292000D03*
Y283000D03*
Y274000D03*
G54D35*G36*
X242250Y285750D02*Y280250D01*
X247750D01*
Y285750D01*
X242250D01*
G37*
G36*
Y276750D02*Y271250D01*
X247750D01*
Y276750D01*
X242250D01*
G37*
G36*
X187000Y336000D02*Y330000D01*
X193000D01*
Y336000D01*
X187000D01*
G37*
G36*
X207000D02*Y330000D01*
X213000D01*
Y336000D01*
X207000D01*
G37*
G36*
X217000D02*Y330000D01*
X223000D01*
Y336000D01*
X217000D01*
G37*
G36*
X227000D02*Y330000D01*
X233000D01*
Y336000D01*
X227000D01*
G37*
G54D34*X210000Y343000D03*
X220000D03*
X230000D03*
X220000Y323000D03*
X230000D03*
Y283000D03*
G54D35*G36*
X227000Y276000D02*Y270000D01*
X233000D01*
Y276000D01*
X227000D01*
G37*
G54D34*X230000Y263000D03*
G54D35*G36*
X227000Y316000D02*Y310000D01*
X233000D01*
Y316000D01*
X227000D01*
G37*
G54D34*X230000Y303000D03*
G54D35*G36*
X227000Y296000D02*Y290000D01*
X233000D01*
Y296000D01*
X227000D01*
G37*
G36*
X242250Y365750D02*Y360250D01*
X247750D01*
Y365750D01*
X242250D01*
G37*
G36*
X28250Y363750D02*Y358250D01*
X33750D01*
Y363750D01*
X28250D01*
G37*
G54D36*X61000Y361000D03*
X275000Y363000D03*
G54D35*G36*
X242250Y358250D02*Y352750D01*
X247750D01*
Y358250D01*
X242250D01*
G37*
G36*
X207000Y356000D02*Y350000D01*
X213000D01*
Y356000D01*
X207000D01*
G37*
G36*
X217000D02*Y350000D01*
X223000D01*
Y356000D01*
X217000D01*
G37*
G36*
X227000D02*Y350000D01*
X233000D01*
Y356000D01*
X227000D01*
G37*
G54D36*X275000Y355500D03*
Y348000D03*
G54D35*G36*
X242250Y350750D02*Y345250D01*
X247750D01*
Y350750D01*
X242250D01*
G37*
G36*
X178000Y374000D02*Y368000D01*
X184000D01*
Y374000D01*
X178000D01*
G37*
G54D34*X171000Y371000D03*
G54D35*G36*
X242250Y373250D02*Y367750D01*
X247750D01*
Y373250D01*
X242250D01*
G37*
G54D36*X275000Y370500D03*
G54D35*G36*
X193250Y373750D02*Y368250D01*
X198750D01*
Y373750D01*
X193250D01*
G37*
G54D36*X226000Y371000D03*
G54D40*X8000Y382500D03*
Y256800D03*
G54D35*G36*
X28000Y385627D02*Y379627D01*
X34000D01*
Y385627D01*
X28000D01*
G37*
G54D34*X41000Y382627D03*
X51000D03*
X61000D03*
X71000D03*
X81000D03*
X91000D03*
X101000D03*
X111000D03*
X121000D03*
X131000D03*
X141000D03*
X151000D03*
X161000D03*
X171000D03*
G54D35*G36*
X167000Y336000D02*Y330000D01*
X173000D01*
Y336000D01*
X167000D01*
G37*
G54D34*X170000Y323000D03*
G54D35*G36*
X157000Y336000D02*Y330000D01*
X163000D01*
Y336000D01*
X157000D01*
G37*
G54D34*X160000Y323000D03*
G54D35*G36*
X147000Y336000D02*Y330000D01*
X153000D01*
Y336000D01*
X147000D01*
G37*
G54D34*X150000Y323000D03*
G54D41*X39000Y13000D02*X61000D01*
X39000Y23000D02*X61000D01*
X39000Y43000D02*X61000D01*
X39000Y33000D02*X61000D01*
X69000D02*X91000D01*
X30000Y44000D02*Y22000D01*
X20000Y44000D02*Y22000D01*
X39000Y53000D02*X61000D01*
X69000D02*X91000D01*
X69000Y63000D02*X91000D01*
X69000Y43000D02*X91000D01*
X69000Y73000D02*X91000D01*
X69000Y83000D02*X91000D01*
X60000Y84000D02*Y62000D01*
X50000Y84000D02*Y62000D01*
X150000Y284000D02*Y262000D01*
X160000Y284000D02*Y262000D01*
X170000Y284000D02*Y262000D01*
X180000Y284000D02*Y262000D01*
X190000Y284000D02*Y262000D01*
X200000Y284000D02*Y262000D01*
Y314000D02*Y292000D01*
X210000Y284000D02*Y262000D01*
Y314000D02*Y292000D01*
X220000Y284000D02*Y262000D01*
Y314000D02*Y292000D01*
X190000Y314000D02*Y292000D01*
X180000Y314000D02*Y292000D01*
X170000Y314000D02*Y292000D01*
X160000Y314000D02*Y292000D01*
X150000Y314000D02*Y292000D01*
X250000Y165000D02*Y143000D01*
X260000Y165000D02*Y143000D01*
X270000Y165000D02*Y143000D01*
X280000Y154000D02*Y132000D01*
X249000Y133000D02*X271000D01*
X279000Y164000D02*X301000D01*
G54D42*X363000Y184000D02*X367500D01*
X363000Y186559D02*X367500D01*
X363000Y189118D02*X367500D01*
X360000D02*X375000D01*
X363000Y178882D02*X367500D01*
X363000Y181441D02*X367500D01*
X360000D02*X375000D01*
G54D43*X363000Y193154D02*X367500D01*
X363000Y174846D02*X367500D01*
G54D44*X369000Y168500D02*Y161250D01*
X382000Y168500D02*Y161250D01*
X369000Y206750D02*Y199500D01*
X382000Y206750D02*Y199500D01*
G54D41*X290000Y154000D02*Y132000D01*
X300000Y154000D02*Y132000D01*
X309000Y133000D02*X331000D01*
X310000Y165000D02*Y143000D01*
X320000Y165000D02*Y143000D01*
X330000Y164000D02*Y142000D01*
X299000Y93000D02*X321000D01*
X299000Y103000D02*X321000D01*
X299000Y113000D02*X321000D01*
X299000Y83000D02*X321000D01*
X299000Y73000D02*X321000D01*
X299000Y63000D02*X321000D01*
X269000Y113000D02*X291000D01*
X260000Y114000D02*Y92000D01*
X250000Y114000D02*Y92000D01*
X269000Y103000D02*X291000D01*
X269000Y93000D02*X291000D01*
X269000Y83000D02*X291000D01*
X269000Y73000D02*X291000D01*
X269000Y63000D02*X291000D01*
X239000Y83000D02*X261000D01*
X239000Y73000D02*X261000D01*
X239000Y63000D02*X261000D01*
G54D45*X24000Y129000D03*
X36000Y372000D03*
X55000Y189000D03*
G54D34*X52000Y355000D03*
G54D45*X65000Y192000D03*
X180000Y37000D03*
X190000D03*
X196000D03*
X202000D03*
X207000D03*
X214000Y38000D03*
X158000Y90000D03*
X221500Y88000D03*
X168000Y94000D03*
X138000Y102000D03*
X148000Y98000D03*
X223000Y157000D03*
X203000Y132000D03*
X183000Y133000D03*
X173000D03*
X183000Y124000D03*
X173000D03*
X95870Y101962D03*
X100925Y97859D03*
X286000Y302000D03*
X291000D03*
X296000D03*
X301000D03*
X345000Y155000D03*
G54D34*X352000Y189000D03*
G54D45*X130500Y190500D03*
X152000D03*
X130500Y195500D03*
X152000D03*
G54D34*X160500Y353000D03*
X151000Y347000D03*
X141000Y341000D03*
X131000Y336000D03*
G54D46*G54D47*G54D46*G54D47*G54D46*G54D47*G54D48*G54D49*G54D50*G54D49*G54D51*G54D48*G54D52*G54D48*G54D49*G54D48*G54D51*G54D48*G54D51*G54D48*G54D51*G54D48*G54D51*G54D49*G54D48*G54D49*G54D48*G54D53*G54D48*G54D49*G54D48*G54D49*G54D48*G54D51*G54D48*G54D49*G54D48*G54D49*G54D51*G54D48*G54D51*G54D48*G54D51*G54D49*G54D48*G54D52*G54D48*G54D53*G54D54*G54D53*G54D51*G54D53*G54D51*G54D54*G54D48*G54D52*G54D48*G54D49*G54D48*G54D49*G54D48*G54D49*G54D48*G54D49*G54D54*G54D48*M02*
